{"frames": {

"anticipation_0001.png":
{
	"frame": {"x":542,"y":1257,"w":3,"h":3},
	"rotated": false,
	"trimmed": true,
	"spriteSourceSize": {"x":0,"y":0,"w":3,"h":3},
	"sourceSize": {"w":164,"h":350}
},
"anticipation_0002.png":
{
	"frame": {"x":414,"y":1855,"w":164,"h":44},
	"rotated": false,
	"trimmed": true,
	"spriteSourceSize": {"x":0,"y":0,"w":164,"h":44},
	"sourceSize": {"w":164,"h":350}
},
"anticipation_0003.png":
{
	"frame": {"x":1780,"y":1,"w":164,"h":87},
	"rotated": true,
	"trimmed": true,
	"spriteSourceSize": {"x":0,"y":0,"w":164,"h":87},
	"sourceSize": {"w":164,"h":350}
},
"anticipation_0004.png":
{
	"frame": {"x":1362,"y":686,"w":164,"h":130},
	"rotated": false,
	"trimmed": true,
	"spriteSourceSize": {"x":0,"y":0,"w":164,"h":130},
	"sourceSize": {"w":164,"h":350}
},
"anticipation_0005.png":
{
	"frame": {"x":1646,"y":1605,"w":164,"h":172},
	"rotated": false,
	"trimmed": true,
	"spriteSourceSize": {"x":0,"y":0,"w":164,"h":172},
	"sourceSize": {"w":164,"h":350}
},
"anticipation_0006.png":
{
	"frame": {"x":766,"y":1689,"w":164,"h":215},
	"rotated": true,
	"trimmed": true,
	"spriteSourceSize": {"x":0,"y":0,"w":164,"h":215},
	"sourceSize": {"w":164,"h":350}
},
"anticipation_0007.png":
{
	"frame": {"x":1575,"y":1087,"w":164,"h":258},
	"rotated": true,
	"trimmed": true,
	"spriteSourceSize": {"x":0,"y":0,"w":164,"h":258},
	"sourceSize": {"w":164,"h":350}
},
"anticipation_0008.png":
{
	"frame": {"x":962,"y":1251,"w":164,"h":301},
	"rotated": false,
	"trimmed": true,
	"spriteSourceSize": {"x":0,"y":0,"w":164,"h":301},
	"sourceSize": {"w":164,"h":350}
},
"anticipation_0009.png":
{
	"frame": {"x":1128,"y":1247,"w":164,"h":344},
	"rotated": false,
	"trimmed": true,
	"spriteSourceSize": {"x":0,"y":0,"w":164,"h":344},
	"sourceSize": {"w":164,"h":350}
},
"anticipation_0010.png":
{
	"frame": {"x":414,"y":1689,"w":164,"h":350},
	"rotated": true,
	"trimmed": false,
	"spriteSourceSize": {"x":0,"y":0,"w":164,"h":350},
	"sourceSize": {"w":164,"h":350}
},
"anticipation_0011.png":
{
	"frame": {"x":1294,"y":1253,"w":164,"h":350},
	"rotated": true,
	"trimmed": false,
	"spriteSourceSize": {"x":0,"y":0,"w":164,"h":350},
	"sourceSize": {"w":164,"h":350}
},
"anticipation_0012.png":
{
	"frame": {"x":1294,"y":1419,"w":164,"h":350},
	"rotated": true,
	"trimmed": false,
	"spriteSourceSize": {"x":0,"y":0,"w":164,"h":350},
	"sourceSize": {"w":164,"h":350}
},
"anticipation_0013.png":
{
	"frame": {"x":1646,"y":1253,"w":164,"h":350},
	"rotated": false,
	"trimmed": false,
	"spriteSourceSize": {"x":0,"y":0,"w":164,"h":350},
	"sourceSize": {"w":164,"h":350}
},
"anticipation_0014.png":
{
	"frame": {"x":1294,"y":1585,"w":164,"h":350},
	"rotated": true,
	"trimmed": false,
	"spriteSourceSize": {"x":0,"y":0,"w":164,"h":350},
	"sourceSize": {"w":164,"h":350}
},
"anticipation_0015.png":
{
	"frame": {"x":983,"y":1593,"w":164,"h":350},
	"rotated": false,
	"trimmed": false,
	"spriteSourceSize": {"x":0,"y":0,"w":164,"h":350},
	"sourceSize": {"w":164,"h":350}
},
"anticipation_0016.png":
{
	"frame": {"x":1149,"y":1751,"w":164,"h":350},
	"rotated": true,
	"trimmed": false,
	"spriteSourceSize": {"x":0,"y":0,"w":164,"h":350},
	"sourceSize": {"w":164,"h":350}
},
"anticipation_0017.png":
{
	"frame": {"x":1501,"y":1779,"w":164,"h":350},
	"rotated": true,
	"trimmed": false,
	"spriteSourceSize": {"x":0,"y":0,"w":164,"h":350},
	"sourceSize": {"w":164,"h":350}
},
"anticipation_seq_0001.png":
{
	"frame": {"x":1349,"y":834,"w":224,"h":417},
	"rotated": false,
	"trimmed": true,
	"spriteSourceSize": {"x":47,"y":56,"w":224,"h":417},
	"sourceSize": {"w":328,"h":500}
},
"anticipation_seq_0002.png":
{
	"frame": {"x":1617,"y":678,"w":252,"h":407},
	"rotated": false,
	"trimmed": true,
	"spriteSourceSize": {"x":45,"y":46,"w":252,"h":407},
	"sourceSize": {"w":328,"h":500}
},
"anticipation_seq_0003.png":
{
	"frame": {"x":1617,"y":266,"w":252,"h":410},
	"rotated": false,
	"trimmed": true,
	"spriteSourceSize": {"x":45,"y":46,"w":252,"h":410},
	"sourceSize": {"w":328,"h":500}
},
"anticipation_seq_0004.png":
{
	"frame": {"x":1,"y":1679,"w":260,"h":411},
	"rotated": true,
	"trimmed": true,
	"spriteSourceSize": {"x":37,"y":45,"w":260,"h":411},
	"sourceSize": {"w":328,"h":500}
},
"anticipation_seq_0005.png":
{
	"frame": {"x":1086,"y":834,"w":261,"h":411},
	"rotated": false,
	"trimmed": true,
	"spriteSourceSize": {"x":36,"y":45,"w":261,"h":411},
	"sourceSize": {"w":328,"h":500}
},
"anticipation_seq_0006.png":
{
	"frame": {"x":1093,"y":420,"w":267,"h":412},
	"rotated": false,
	"trimmed": true,
	"spriteSourceSize": {"x":33,"y":44,"w":267,"h":412},
	"sourceSize": {"w":328,"h":500}
},
"anticipation_seq_0007.png":
{
	"frame": {"x":547,"y":837,"w":271,"h":412},
	"rotated": false,
	"trimmed": true,
	"spriteSourceSize": {"x":33,"y":44,"w":271,"h":412},
	"sourceSize": {"w":328,"h":500}
},
"anticipation_seq_0008.png":
{
	"frame": {"x":820,"y":418,"w":271,"h":411},
	"rotated": false,
	"trimmed": true,
	"spriteSourceSize": {"x":33,"y":44,"w":271,"h":411},
	"sourceSize": {"w":328,"h":500}
},
"anticipation_seq_0009.png":
{
	"frame": {"x":1,"y":1,"w":271,"h":418},
	"rotated": false,
	"trimmed": true,
	"spriteSourceSize": {"x":33,"y":37,"w":271,"h":418},
	"sourceSize": {"w":328,"h":500}
},
"anticipation_seq_0010.png":
{
	"frame": {"x":274,"y":421,"w":271,"h":417},
	"rotated": false,
	"trimmed": true,
	"spriteSourceSize": {"x":33,"y":37,"w":271,"h":417},
	"sourceSize": {"w":328,"h":500}
},
"anticipation_seq_0011.png":
{
	"frame": {"x":274,"y":840,"w":271,"h":415},
	"rotated": false,
	"trimmed": true,
	"spriteSourceSize": {"x":33,"y":37,"w":271,"h":415},
	"sourceSize": {"w":328,"h":500}
},
"anticipation_seq_0012.png":
{
	"frame": {"x":1,"y":421,"w":271,"h":418},
	"rotated": false,
	"trimmed": true,
	"spriteSourceSize": {"x":33,"y":37,"w":271,"h":418},
	"sourceSize": {"w":328,"h":500}
},
"anticipation_seq_0013.png":
{
	"frame": {"x":547,"y":420,"w":271,"h":415},
	"rotated": false,
	"trimmed": true,
	"spriteSourceSize": {"x":33,"y":40,"w":271,"h":415},
	"sourceSize": {"w":328,"h":500}
},
"anticipation_seq_0014.png":
{
	"frame": {"x":820,"y":1,"w":271,"h":415},
	"rotated": false,
	"trimmed": true,
	"spriteSourceSize": {"x":33,"y":40,"w":271,"h":415},
	"sourceSize": {"w":328,"h":500}
},
"anticipation_seq_0015.png":
{
	"frame": {"x":1,"y":1261,"w":271,"h":416},
	"rotated": false,
	"trimmed": true,
	"spriteSourceSize": {"x":33,"y":39,"w":271,"h":416},
	"sourceSize": {"w":328,"h":500}
},
"anticipation_seq_0016.png":
{
	"frame": {"x":274,"y":1,"w":271,"h":418},
	"rotated": false,
	"trimmed": true,
	"spriteSourceSize": {"x":33,"y":39,"w":271,"h":418},
	"sourceSize": {"w":328,"h":500}
},
"anticipation_seq_0017.png":
{
	"frame": {"x":547,"y":1,"w":271,"h":417},
	"rotated": false,
	"trimmed": true,
	"spriteSourceSize": {"x":33,"y":40,"w":271,"h":417},
	"sourceSize": {"w":328,"h":500}
},
"anticipation_seq_0018.png":
{
	"frame": {"x":1,"y":841,"w":271,"h":418},
	"rotated": false,
	"trimmed": true,
	"spriteSourceSize": {"x":33,"y":40,"w":271,"h":418},
	"sourceSize": {"w":328,"h":500}
},
"anticipation_seq_0019.png":
{
	"frame": {"x":274,"y":1257,"w":266,"h":418},
	"rotated": false,
	"trimmed": true,
	"spriteSourceSize": {"x":33,"y":40,"w":266,"h":418},
	"sourceSize": {"w":328,"h":500}
},
"anticipation_seq_0020.png":
{
	"frame": {"x":1093,"y":1,"w":265,"h":417},
	"rotated": false,
	"trimmed": true,
	"spriteSourceSize": {"x":33,"y":41,"w":265,"h":417},
	"sourceSize": {"w":328,"h":500}
},
"anticipation_seq_0021.png":
{
	"frame": {"x":820,"y":831,"w":264,"h":418},
	"rotated": false,
	"trimmed": true,
	"spriteSourceSize": {"x":33,"y":42,"w":264,"h":418},
	"sourceSize": {"w":328,"h":500}
},
"anticipation_seq_0022.png":
{
	"frame": {"x":1360,"y":1,"w":263,"h":418},
	"rotated": true,
	"trimmed": true,
	"spriteSourceSize": {"x":33,"y":42,"w":263,"h":418},
	"sourceSize": {"w":328,"h":500}
},
"anticipation_seq_0023.png":
{
	"frame": {"x":1362,"y":266,"w":253,"h":418},
	"rotated": false,
	"trimmed": true,
	"spriteSourceSize": {"x":41,"y":42,"w":253,"h":418},
	"sourceSize": {"w":328,"h":500}
},
"anticipation_seq_0024.png":
{
	"frame": {"x":547,"y":1251,"w":222,"h":413},
	"rotated": true,
	"trimmed": true,
	"spriteSourceSize": {"x":47,"y":47,"w":222,"h":413},
	"sourceSize": {"w":328,"h":500}
},
"anticipation_seq_0025.png":
{
	"frame": {"x":542,"y":1475,"w":212,"h":400},
	"rotated": true,
	"trimmed": true,
	"spriteSourceSize": {"x":53,"y":54,"w":212,"h":400},
	"sourceSize": {"w":328,"h":500}
}},
"animations": {
	"anticipation": ["anticipation_0001.png","anticipation_0002.png","anticipation_0003.png","anticipation_0004.png","anticipation_0005.png","anticipation_0006.png","anticipation_0007.png","anticipation_0008.png","anticipation_0009.png","anticipation_0010.png","anticipation_0011.png","anticipation_0012.png","anticipation_0013.png","anticipation_0014.png","anticipation_0015.png","anticipation_0016.png","anticipation_0017.png"],
	"anticipation_seq": ["anticipation_seq_0001.png","anticipation_seq_0002.png","anticipation_seq_0003.png","anticipation_seq_0004.png","anticipation_seq_0005.png","anticipation_seq_0006.png","anticipation_seq_0007.png","anticipation_seq_0008.png","anticipation_seq_0009.png","anticipation_seq_0010.png","anticipation_seq_0011.png","anticipation_seq_0012.png","anticipation_seq_0013.png","anticipation_seq_0014.png","anticipation_seq_0015.png","anticipation_seq_0016.png","anticipation_seq_0017.png","anticipation_seq_0018.png","anticipation_seq_0019.png","anticipation_seq_0020.png","anticipation_seq_0021.png","anticipation_seq_0022.png","anticipation_seq_0023.png","anticipation_seq_0024.png","anticipation_seq_0025.png"]
},
"meta": {
	"app": "https://www.codeandweb.com/texturepacker",
	"version": "1.0",
	"image": "anticipation.png",
	"format": "RGBA8888",
	"size": {"w":1870,"h":1944},
	"scale": "1",
	"smartupdate": "$TexturePacker:SmartUpdate:1a91572ae35d05acae5dde7757a6206b:0d7a27bb9177423ab57adaa027aadd3e:8c00f30e9c6494d704980cddd8e23a47$"
}
}
