{"frames": {

"bg.png":
{
	"frame": {"x":1,"y":1,"w":1066,"h":600},
	"rotated": false,
	"trimmed": false,
	"spriteSourceSize": {"x":0,"y":0,"w":1066,"h":600},
	"sourceSize": {"w":1066,"h":600}
},
"Chairs.png":
{
	"frame": {"x":1548,"y":1,"w":1066,"h":122},
	"rotated": true,
	"trimmed": true,
	"spriteSourceSize": {"x":0,"y":401,"w":1066,"h":122},
	"sourceSize": {"w":1066,"h":600}
},
"CURTAINS.png":
{
	"frame": {"x":1069,"y":1,"w":1066,"h":477},
	"rotated": true,
	"trimmed": true,
	"spriteSourceSize": {"x":0,"y":0,"w":1066,"h":477},
	"sourceSize": {"w":1066,"h":600}
},
"panel.png":
{
	"frame": {"x":1672,"y":1,"w":1066,"h":81},
	"rotated": true,
	"trimmed": true,
	"spriteSourceSize": {"x":0,"y":519,"w":1066,"h":81},
	"sourceSize": {"w":1066,"h":600}
},
"reel_area.png":
{
	"frame": {"x":1452,"y":1069,"w":849,"h":369},
	"rotated": true,
	"trimmed": true,
	"spriteSourceSize": {"x":91,"y":93,"w":849,"h":369},
	"sourceSize": {"w":1024,"h":576}
},
"reel_divider.png":
{
	"frame": {"x":1,"y":603,"w":889,"h":427},
	"rotated": false,
	"trimmed": true,
	"spriteSourceSize": {"x":88,"y":95,"w":889,"h":427},
	"sourceSize": {"w":1066,"h":600}
},
"screen_long.png":
{
	"frame": {"x":1755,"y":1,"w":170,"h":34},
	"rotated": true,
	"trimmed": false,
	"spriteSourceSize": {"x":0,"y":0,"w":170,"h":34},
	"sourceSize": {"w":170,"h":34}
},
"screen_med.png":
{
	"frame": {"x":1755,"y":173,"w":133,"h":34},
	"rotated": true,
	"trimmed": false,
	"spriteSourceSize": {"x":0,"y":0,"w":133,"h":34},
	"sourceSize": {"w":133,"h":34}
},
"screen_short.png":
{
	"frame": {"x":1755,"y":308,"w":100,"h":34},
	"rotated": true,
	"trimmed": false,
	"spriteSourceSize": {"x":0,"y":0,"w":100,"h":34},
	"sourceSize": {"w":100,"h":34}
},
"side_indicator.png":
{
	"frame": {"x":1,"y":1032,"w":937,"h":367},
	"rotated": true,
	"trimmed": true,
	"spriteSourceSize": {"x":64,"y":80,"w":937,"h":367},
	"sourceSize": {"w":1066,"h":600}
},
"side_indicator_bg.png":
{
	"frame": {"x":370,"y":1032,"w":937,"h":367},
	"rotated": true,
	"trimmed": true,
	"spriteSourceSize": {"x":64,"y":80,"w":937,"h":367},
	"sourceSize": {"w":1066,"h":600}
},
"side_indicator_numbers_h.png":
{
	"frame": {"x":739,"y":1069,"w":923,"h":360},
	"rotated": true,
	"trimmed": true,
	"spriteSourceSize": {"x":70,"y":84,"w":923,"h":360},
	"sourceSize": {"w":1066,"h":600}
},
"side_indicator_numbers_n.png":
{
	"frame": {"x":1101,"y":1069,"w":912,"h":349},
	"rotated": true,
	"trimmed": true,
	"spriteSourceSize": {"x":76,"y":89,"w":912,"h":349},
	"sourceSize": {"w":1066,"h":600}
},
"sm_screen_long.png":
{
	"frame": {"x":1791,"y":1,"w":116,"h":24},
	"rotated": true,
	"trimmed": false,
	"spriteSourceSize": {"x":0,"y":0,"w":116,"h":24},
	"sourceSize": {"w":116,"h":24}
},
"sm_screen_med.png":
{
	"frame": {"x":1791,"y":119,"w":92,"h":24},
	"rotated": true,
	"trimmed": false,
	"spriteSourceSize": {"x":0,"y":0,"w":92,"h":24},
	"sourceSize": {"w":92,"h":24}
},
"title.png":
{
	"frame": {"x":892,"y":603,"w":334,"h":81},
	"rotated": true,
	"trimmed": true,
	"spriteSourceSize": {"x":351,"y":0,"w":334,"h":81},
	"sourceSize": {"w":1066,"h":600}
}},
"meta": {
	"app": "https://www.codeandweb.com/texturepacker",
	"version": "1.0",
	"image": "background.png",
	"format": "RGBA8888",
	"size": {"w":1822,"h":1993},
	"scale": "1",
	"smartupdate": "$TexturePacker:SmartUpdate:506326c6c3489a7c2b8752e5cd49edf0:2dcfa9dd73e9e0cbc120e18bf3d8d084:2ba65c328dea799e4d80739630892abf$"
}
}
