{"frames": {

"1.png":
{
	"frame": {"x":940,"y":352,"w":937,"h":33},
	"rotated": false,
	"trimmed": true,
	"spriteSourceSize": {"x":64,"y":247,"w":937,"h":33},
	"sourceSize": {"w":1066,"h":600}
},
"2.png":
{
	"frame": {"x":1,"y":2411,"w":805,"h":58},
	"rotated": false,
	"trimmed": true,
	"spriteSourceSize": {"x":196,"y":107,"w":805,"h":58},
	"sourceSize": {"w":1066,"h":600}
},
"3.png":
{
	"frame": {"x":808,"y":2424,"w":804,"h":33},
	"rotated": false,
	"trimmed": true,
	"spriteSourceSize": {"x":64,"y":386,"w":804,"h":33},
	"sourceSize": {"w":1066,"h":600}
},
"4.png":
{
	"frame": {"x":1,"y":1624,"w":805,"h":284},
	"rotated": false,
	"trimmed": true,
	"spriteSourceSize": {"x":64,"y":111,"w":805,"h":284},
	"sourceSize": {"w":1066,"h":600}
},
"5.png":
{
	"frame": {"x":1,"y":1045,"w":806,"h":288},
	"rotated": false,
	"trimmed": true,
	"spriteSourceSize": {"x":64,"y":158,"w":806,"h":288},
	"sourceSize": {"w":1066,"h":600}
},
"6.png":
{
	"frame": {"x":808,"y":1703,"w":806,"h":200},
	"rotated": false,
	"trimmed": true,
	"spriteSourceSize": {"x":195,"y":80,"w":806,"h":200},
	"sourceSize": {"w":1066,"h":600}
},
"7.png":
{
	"frame": {"x":809,"y":2154,"w":805,"h":143},
	"rotated": false,
	"trimmed": true,
	"spriteSourceSize": {"x":196,"y":272,"w":805,"h":143},
	"sourceSize": {"w":1066,"h":600}
},
"8.png":
{
	"frame": {"x":809,"y":1579,"w":807,"h":122},
	"rotated": false,
	"trimmed": true,
	"spriteSourceSize": {"x":194,"y":158,"w":807,"h":122},
	"sourceSize": {"w":1066,"h":600}
},
"9.png":
{
	"frame": {"x":807,"y":2030,"w":806,"h":122},
	"rotated": false,
	"trimmed": true,
	"spriteSourceSize": {"x":195,"y":271,"w":806,"h":122},
	"sourceSize": {"w":1066,"h":600}
},
"10.png":
{
	"frame": {"x":809,"y":732,"w":807,"h":124},
	"rotated": true,
	"trimmed": true,
	"spriteSourceSize": {"x":64,"y":157,"w":807,"h":124},
	"sourceSize": {"w":1066,"h":600}
},
"11.png":
{
	"frame": {"x":1646,"y":628,"w":804,"h":123},
	"rotated": true,
	"trimmed": true,
	"spriteSourceSize": {"x":64,"y":272,"w":804,"h":123},
	"sourceSize": {"w":1066,"h":600}
},
"12.png":
{
	"frame": {"x":935,"y":1436,"w":805,"h":141},
	"rotated": false,
	"trimmed": true,
	"spriteSourceSize": {"x":64,"y":138,"w":805,"h":141},
	"sourceSize": {"w":1066,"h":600}
},
"13.png":
{
	"frame": {"x":1771,"y":1195,"w":803,"h":121},
	"rotated": true,
	"trimmed": true,
	"spriteSourceSize": {"x":64,"y":272,"w":803,"h":121},
	"sourceSize": {"w":1066,"h":600}
},
"14.png":
{
	"frame": {"x":809,"y":2299,"w":804,"h":123},
	"rotated": false,
	"trimmed": true,
	"spriteSourceSize": {"x":64,"y":157,"w":804,"h":123},
	"sourceSize": {"w":1066,"h":600}
},
"15.png":
{
	"frame": {"x":1618,"y":1579,"w":802,"h":123},
	"rotated": true,
	"trimmed": true,
	"spriteSourceSize": {"x":64,"y":272,"w":802,"h":123},
	"sourceSize": {"w":1066,"h":600}
},
"16.png":
{
	"frame": {"x":1771,"y":387,"w":806,"h":121},
	"rotated": true,
	"trimmed": true,
	"spriteSourceSize": {"x":195,"y":159,"w":806,"h":121},
	"sourceSize": {"w":1066,"h":600}
},
"17.png":
{
	"frame": {"x":808,"y":1905,"w":806,"h":123},
	"rotated": false,
	"trimmed": true,
	"spriteSourceSize": {"x":195,"y":273,"w":806,"h":123},
	"sourceSize": {"w":1066,"h":600}
},
"18.png":
{
	"frame": {"x":1173,"y":628,"w":806,"h":234},
	"rotated": true,
	"trimmed": true,
	"spriteSourceSize": {"x":195,"y":159,"w":806,"h":234},
	"sourceSize": {"w":1066,"h":600}
},
"19.png":
{
	"frame": {"x":1409,"y":628,"w":804,"h":235},
	"rotated": true,
	"trimmed": true,
	"spriteSourceSize": {"x":64,"y":158,"w":804,"h":235},
	"sourceSize": {"w":1066,"h":600}
},
"20.png":
{
	"frame": {"x":926,"y":387,"w":806,"h":239},
	"rotated": false,
	"trimmed": true,
	"spriteSourceSize": {"x":64,"y":157,"w":806,"h":239},
	"sourceSize": {"w":1066,"h":600}
},
"21.png":
{
	"frame": {"x":1,"y":1335,"w":806,"h":287},
	"rotated": false,
	"trimmed": true,
	"spriteSourceSize": {"x":195,"y":157,"w":806,"h":287},
	"sourceSize": {"w":1066,"h":600}
},
"22.png":
{
	"frame": {"x":1,"y":2169,"w":806,"h":240},
	"rotated": false,
	"trimmed": true,
	"spriteSourceSize": {"x":195,"y":156,"w":806,"h":240},
	"sourceSize": {"w":1066,"h":600}
},
"23.png":
{
	"frame": {"x":935,"y":628,"w":806,"h":236},
	"rotated": true,
	"trimmed": true,
	"spriteSourceSize": {"x":195,"y":157,"w":806,"h":236},
	"sourceSize": {"w":1066,"h":600}
},
"24.png":
{
	"frame": {"x":1,"y":732,"w":806,"h":311},
	"rotated": false,
	"trimmed": true,
	"spriteSourceSize": {"x":64,"y":83,"w":806,"h":311},
	"sourceSize": {"w":1066,"h":600}
},
"25.png":
{
	"frame": {"x":1,"y":1910,"w":804,"h":257},
	"rotated": false,
	"trimmed": true,
	"spriteSourceSize": {"x":197,"y":136,"w":804,"h":257},
	"sourceSize": {"w":1066,"h":600}
},
"indicators/side_indicator_bg.png":
{
	"frame": {"x":1,"y":1,"w":937,"h":367},
	"rotated": false,
	"trimmed": true,
	"spriteSourceSize": {"x":64,"y":80,"w":937,"h":367},
	"sourceSize": {"w":1066,"h":600}
},
"indicators/side_indicator_numbers_h.png":
{
	"frame": {"x":1,"y":370,"w":923,"h":360},
	"rotated": false,
	"trimmed": true,
	"spriteSourceSize": {"x":70,"y":84,"w":923,"h":360},
	"sourceSize": {"w":1066,"h":600}
},
"indicators/side_indicator_numbers_n.png":
{
	"frame": {"x":940,"y":1,"w":912,"h":349},
	"rotated": false,
	"trimmed": true,
	"spriteSourceSize": {"x":76,"y":89,"w":912,"h":349},
	"sourceSize": {"w":1066,"h":600}
}},
"meta": {
	"app": "https://www.codeandweb.com/texturepacker",
	"version": "1.0",
	"image": "paylines.png",
	"format": "RGBA8888",
	"size": {"w":1893,"h":2470},
	"scale": "1",
	"smartupdate": "$TexturePacker:SmartUpdate:fff8b99a48ea96845bfc45e64e9c86f7:69b6acfd20a017f2c3babb83975ec2dc:6300c3b185eeabd280efaa04d3c6b6f7$"
}
}
