{"frames": {

"animated/sym_scatter/scatter_0001.png":
{
	"frame": {"x":1408,"y":247,"w":149,"h":100},
	"rotated": false,
	"trimmed": true,
	"spriteSourceSize": {"x":1,"y":0,"w":149,"h":100},
	"sourceSize": {"w":150,"h":100}
},
"animated/sym_scatter/scatter_0002.png":
{
	"frame": {"x":1559,"y":231,"w":147,"h":100},
	"rotated": false,
	"trimmed": true,
	"spriteSourceSize": {"x":3,"y":0,"w":147,"h":100},
	"sourceSize": {"w":150,"h":100}
},
"animated/sym_scatter/scatter_0003.png":
{
	"frame": {"x":1708,"y":219,"w":147,"h":100},
	"rotated": false,
	"trimmed": true,
	"spriteSourceSize": {"x":3,"y":0,"w":147,"h":100},
	"sourceSize": {"w":150,"h":100}
},
"animated/sym_scatter/scatter_0004.png":
{
	"frame": {"x":1560,"y":333,"w":146,"h":100},
	"rotated": false,
	"trimmed": true,
	"spriteSourceSize": {"x":4,"y":0,"w":146,"h":100},
	"sourceSize": {"w":150,"h":100}
},
"animated/sym_scatter/scatter_0005.png":
{
	"frame": {"x":1261,"y":243,"w":145,"h":100},
	"rotated": false,
	"trimmed": true,
	"spriteSourceSize": {"x":5,"y":0,"w":145,"h":100},
	"sourceSize": {"w":150,"h":100}
},
"animated/sym_scatter/scatter_0006.png":
{
	"frame": {"x":1261,"y":345,"w":145,"h":100},
	"rotated": false,
	"trimmed": true,
	"spriteSourceSize": {"x":5,"y":0,"w":145,"h":100},
	"sourceSize": {"w":150,"h":100}
},
"animated/sym_scatter/scatter_0007.png":
{
	"frame": {"x":1702,"y":117,"w":150,"h":100},
	"rotated": false,
	"trimmed": false,
	"spriteSourceSize": {"x":0,"y":0,"w":150,"h":100},
	"sourceSize": {"w":150,"h":100}
},
"animated/sym_scatter/scatter_0008.png":
{
	"frame": {"x":558,"y":233,"w":150,"h":100},
	"rotated": false,
	"trimmed": false,
	"spriteSourceSize": {"x":0,"y":0,"w":150,"h":100},
	"sourceSize": {"w":150,"h":100}
},
"animated/sym_scatter/scatter_0009.png":
{
	"frame": {"x":710,"y":233,"w":150,"h":100},
	"rotated": false,
	"trimmed": false,
	"spriteSourceSize": {"x":0,"y":0,"w":150,"h":100},
	"sourceSize": {"w":150,"h":100}
},
"animated/sym_scatter/scatter_0010.png":
{
	"frame": {"x":862,"y":233,"w":150,"h":100},
	"rotated": false,
	"trimmed": false,
	"spriteSourceSize": {"x":0,"y":0,"w":150,"h":100},
	"sourceSize": {"w":150,"h":100}
},
"animated/sym_scatter/scatter_0011.png":
{
	"frame": {"x":1014,"y":233,"w":150,"h":100},
	"rotated": false,
	"trimmed": false,
	"spriteSourceSize": {"x":0,"y":0,"w":150,"h":100},
	"sourceSize": {"w":150,"h":100}
},
"animated/sym_scatter/scatter_0012.png":
{
	"frame": {"x":1408,"y":349,"w":150,"h":100},
	"rotated": false,
	"trimmed": false,
	"spriteSourceSize": {"x":0,"y":0,"w":150,"h":100},
	"sourceSize": {"w":150,"h":100}
},
"animated/sym_scatter/scatter_0013.png":
{
	"frame": {"x":1708,"y":321,"w":150,"h":100},
	"rotated": false,
	"trimmed": false,
	"spriteSourceSize": {"x":0,"y":0,"w":150,"h":100},
	"sourceSize": {"w":150,"h":100}
},
"animated/sym_scatter/scatter_0014.png":
{
	"frame": {"x":1854,"y":117,"w":150,"h":100},
	"rotated": false,
	"trimmed": false,
	"spriteSourceSize": {"x":0,"y":0,"w":150,"h":100},
	"sourceSize": {"w":150,"h":100}
},
"animated/sym_scatter/scatter_0015.png":
{
	"frame": {"x":264,"y":535,"w":150,"h":100},
	"rotated": true,
	"trimmed": false,
	"spriteSourceSize": {"x":0,"y":0,"w":150,"h":100},
	"sourceSize": {"w":150,"h":100}
},
"animated/sym_scatter/scatter_0016.png":
{
	"frame": {"x":117,"y":727,"w":150,"h":100},
	"rotated": true,
	"trimmed": false,
	"spriteSourceSize": {"x":0,"y":0,"w":150,"h":100},
	"sourceSize": {"w":150,"h":100}
},
"animated/sym_scatter/scatter_0017.png":
{
	"frame": {"x":117,"y":879,"w":150,"h":100},
	"rotated": true,
	"trimmed": false,
	"spriteSourceSize": {"x":0,"y":0,"w":150,"h":100},
	"sourceSize": {"w":150,"h":100}
},
"animated/sym_scatter/scatter_0018.png":
{
	"frame": {"x":117,"y":1031,"w":150,"h":100},
	"rotated": true,
	"trimmed": false,
	"spriteSourceSize": {"x":0,"y":0,"w":150,"h":100},
	"sourceSize": {"w":150,"h":100}
},
"animated/sym_scatter/scatter_0019.png":
{
	"frame": {"x":411,"y":336,"w":150,"h":100},
	"rotated": true,
	"trimmed": false,
	"spriteSourceSize": {"x":0,"y":0,"w":150,"h":100},
	"sourceSize": {"w":150,"h":100}
},
"animated/sym_scatter/scatter_0020.png":
{
	"frame": {"x":513,"y":335,"w":150,"h":100},
	"rotated": false,
	"trimmed": false,
	"spriteSourceSize": {"x":0,"y":0,"w":150,"h":100},
	"sourceSize": {"w":150,"h":100}
},
"animated/sym_scatter/scatter_0021.png":
{
	"frame": {"x":665,"y":335,"w":150,"h":100},
	"rotated": false,
	"trimmed": false,
	"spriteSourceSize": {"x":0,"y":0,"w":150,"h":100},
	"sourceSize": {"w":150,"h":100}
},
"animated/sym_scatter/scatter_0022.png":
{
	"frame": {"x":817,"y":335,"w":150,"h":100},
	"rotated": false,
	"trimmed": false,
	"spriteSourceSize": {"x":0,"y":0,"w":150,"h":100},
	"sourceSize": {"w":150,"h":100}
},
"animated/sym_scatter/scatter_0023.png":
{
	"frame": {"x":969,"y":335,"w":150,"h":100},
	"rotated": false,
	"trimmed": false,
	"spriteSourceSize": {"x":0,"y":0,"w":150,"h":100},
	"sourceSize": {"w":150,"h":100}
},
"animated/sym_scatter/scatter_0024.png":
{
	"frame": {"x":513,"y":437,"w":150,"h":100},
	"rotated": false,
	"trimmed": false,
	"spriteSourceSize": {"x":0,"y":0,"w":150,"h":100},
	"sourceSize": {"w":150,"h":100}
},
"animated/sym_scatter/scatter_0025.png":
{
	"frame": {"x":321,"y":990,"w":148,"h":100},
	"rotated": true,
	"trimmed": true,
	"spriteSourceSize": {"x":2,"y":0,"w":148,"h":100},
	"sourceSize": {"w":150,"h":100}
},
"animated/sym_wild/wild_seq_0001.png":
{
	"frame": {"x":366,"y":539,"w":146,"h":96},
	"rotated": true,
	"trimmed": true,
	"spriteSourceSize": {"x":4,"y":104,"w":146,"h":96},
	"sourceSize": {"w":150,"h":200}
},
"animated/sym_wild/wild_seq_0002.png":
{
	"frame": {"x":774,"y":845,"w":145,"h":94},
	"rotated": false,
	"trimmed": true,
	"spriteSourceSize": {"x":5,"y":106,"w":145,"h":94},
	"sourceSize": {"w":150,"h":200}
},
"animated/sym_wild/wild_seq_0003.png":
{
	"frame": {"x":1261,"y":117,"w":145,"h":124},
	"rotated": false,
	"trimmed": true,
	"spriteSourceSize": {"x":5,"y":76,"w":145,"h":124},
	"sourceSize": {"w":150,"h":200}
},
"animated/sym_wild/wild_seq_0004.png":
{
	"frame": {"x":295,"y":180,"w":145,"h":154},
	"rotated": false,
	"trimmed": true,
	"spriteSourceSize": {"x":5,"y":46,"w":145,"h":154},
	"sourceSize": {"w":150,"h":200}
},
"animated/sym_wild/wild_seq_0005.png":
{
	"frame": {"x":148,"y":187,"w":145,"h":178},
	"rotated": false,
	"trimmed": true,
	"spriteSourceSize": {"x":5,"y":22,"w":145,"h":178},
	"sourceSize": {"w":150,"h":200}
},
"animated/sym_wild/wild_seq_0006.png":
{
	"frame": {"x":1,"y":557,"w":145,"h":168},
	"rotated": false,
	"trimmed": true,
	"spriteSourceSize": {"x":5,"y":32,"w":145,"h":168},
	"sourceSize": {"w":150,"h":200}
},
"animated/sym_wild/wild_seq_0007.png":
{
	"frame": {"x":1,"y":376,"w":145,"h":179},
	"rotated": false,
	"trimmed": true,
	"spriteSourceSize": {"x":5,"y":21,"w":145,"h":179},
	"sourceSize": {"w":150,"h":200}
},
"animated/sym_wild/wild_seq_0008.png":
{
	"frame": {"x":1,"y":189,"w":145,"h":185},
	"rotated": false,
	"trimmed": true,
	"spriteSourceSize": {"x":5,"y":15,"w":145,"h":185},
	"sourceSize": {"w":150,"h":200}
},
"animated/sym_wild/wild_seq_0009.png":
{
	"frame": {"x":1,"y":1,"w":145,"h":186},
	"rotated": false,
	"trimmed": true,
	"spriteSourceSize": {"x":5,"y":14,"w":145,"h":186},
	"sourceSize": {"w":150,"h":200}
},
"animated/sym_wild/wild_seq_0010.png":
{
	"frame": {"x":148,"y":1,"w":145,"h":184},
	"rotated": false,
	"trimmed": true,
	"spriteSourceSize": {"x":5,"y":16,"w":145,"h":184},
	"sourceSize": {"w":150,"h":200}
},
"animated/sym_wild/wild_seq_0011.png":
{
	"frame": {"x":295,"y":1,"w":145,"h":177},
	"rotated": false,
	"trimmed": true,
	"spriteSourceSize": {"x":5,"y":23,"w":145,"h":177},
	"sourceSize": {"w":150,"h":200}
},
"animated/sym_wild/wild_seq_0012.png":
{
	"frame": {"x":148,"y":367,"w":145,"h":166},
	"rotated": false,
	"trimmed": true,
	"spriteSourceSize": {"x":5,"y":34,"w":145,"h":166},
	"sourceSize": {"w":150,"h":200}
},
"animated/sym_wild/wild_seq_0013.png":
{
	"frame": {"x":442,"y":1,"w":145,"h":149},
	"rotated": false,
	"trimmed": true,
	"spriteSourceSize": {"x":5,"y":51,"w":145,"h":149},
	"sourceSize": {"w":150,"h":200}
},
"animated/sym_wild/wild_seq_0014.png":
{
	"frame": {"x":1408,"y":117,"w":145,"h":128},
	"rotated": false,
	"trimmed": true,
	"spriteSourceSize": {"x":5,"y":72,"w":145,"h":128},
	"sourceSize": {"w":150,"h":200}
},
"animated/sym_wild/wild_seq_0015.png":
{
	"frame": {"x":1555,"y":117,"w":145,"h":112},
	"rotated": false,
	"trimmed": true,
	"spriteSourceSize": {"x":5,"y":88,"w":145,"h":112},
	"sourceSize": {"w":150,"h":200}
},
"animated/sym_wild/wild_seq_0016.png":
{
	"frame": {"x":627,"y":845,"w":145,"h":96},
	"rotated": false,
	"trimmed": true,
	"spriteSourceSize": {"x":5,"y":104,"w":145,"h":96},
	"sourceSize": {"w":150,"h":200}
},
"animated/sym_wild/wild_seq_0017.png":
{
	"frame": {"x":774,"y":941,"w":145,"h":94},
	"rotated": false,
	"trimmed": true,
	"spriteSourceSize": {"x":5,"y":106,"w":145,"h":94},
	"sourceSize": {"w":150,"h":200}
},
"animated/sym_wild/wild_seq_0018.png":
{
	"frame": {"x":627,"y":943,"w":145,"h":96},
	"rotated": false,
	"trimmed": true,
	"spriteSourceSize": {"x":5,"y":104,"w":145,"h":96},
	"sourceSize": {"w":150,"h":200}
},
"BaseGameSymbolFrame/flashing_seq_0001.png":
{
	"frame": {"x":1,"y":727,"w":167,"h":114},
	"rotated": true,
	"trimmed": false,
	"spriteSourceSize": {"x":0,"y":0,"w":167,"h":114},
	"sourceSize": {"w":167,"h":114}
},
"BaseGameSymbolFrame/flashing_seq_0002.png":
{
	"frame": {"x":148,"y":535,"w":167,"h":114},
	"rotated": true,
	"trimmed": false,
	"spriteSourceSize": {"x":0,"y":0,"w":167,"h":114},
	"sourceSize": {"w":167,"h":114}
},
"BaseGameSymbolFrame/flashing_seq_0003.png":
{
	"frame": {"x":295,"y":336,"w":167,"h":114},
	"rotated": true,
	"trimmed": false,
	"spriteSourceSize": {"x":0,"y":0,"w":167,"h":114},
	"sourceSize": {"w":167,"h":114}
},
"BaseGameSymbolFrame/flashing_seq_0004.png":
{
	"frame": {"x":1603,"y":1,"w":166,"h":114},
	"rotated": false,
	"trimmed": true,
	"spriteSourceSize": {"x":0,"y":0,"w":166,"h":114},
	"sourceSize": {"w":167,"h":114}
},
"BaseGameSymbolFrame/flashing_seq_0005.png":
{
	"frame": {"x":1771,"y":1,"w":166,"h":114},
	"rotated": false,
	"trimmed": true,
	"spriteSourceSize": {"x":0,"y":0,"w":166,"h":114},
	"sourceSize": {"w":167,"h":114}
},
"BaseGameSymbolFrame/flashing_seq_0006.png":
{
	"frame": {"x":589,"y":117,"w":166,"h":114},
	"rotated": false,
	"trimmed": true,
	"spriteSourceSize": {"x":0,"y":0,"w":166,"h":114},
	"sourceSize": {"w":167,"h":114}
},
"BaseGameSymbolFrame/flashing_seq_0007.png":
{
	"frame": {"x":442,"y":152,"w":167,"h":114},
	"rotated": true,
	"trimmed": false,
	"spriteSourceSize": {"x":0,"y":0,"w":167,"h":114},
	"sourceSize": {"w":167,"h":114}
},
"BaseGameSymbolFrame/flashing_seq_0008.png":
{
	"frame": {"x":589,"y":1,"w":167,"h":114},
	"rotated": false,
	"trimmed": false,
	"spriteSourceSize": {"x":0,"y":0,"w":167,"h":114},
	"sourceSize": {"w":167,"h":114}
},
"BaseGameSymbolFrame/flashing_seq_0009.png":
{
	"frame": {"x":1,"y":896,"w":167,"h":114},
	"rotated": true,
	"trimmed": false,
	"spriteSourceSize": {"x":0,"y":0,"w":167,"h":114},
	"sourceSize": {"w":167,"h":114}
},
"BaseGameSymbolFrame/flashing_seq_0010.png":
{
	"frame": {"x":758,"y":1,"w":167,"h":114},
	"rotated": false,
	"trimmed": false,
	"spriteSourceSize": {"x":0,"y":0,"w":167,"h":114},
	"sourceSize": {"w":167,"h":114}
},
"BaseGameSymbolFrame/flashing_seq_0011.png":
{
	"frame": {"x":1,"y":1065,"w":167,"h":114},
	"rotated": true,
	"trimmed": false,
	"spriteSourceSize": {"x":0,"y":0,"w":167,"h":114},
	"sourceSize": {"w":167,"h":114}
},
"BaseGameSymbolFrame/flashing_seq_0012.png":
{
	"frame": {"x":757,"y":117,"w":166,"h":114},
	"rotated": false,
	"trimmed": true,
	"spriteSourceSize": {"x":0,"y":0,"w":166,"h":114},
	"sourceSize": {"w":167,"h":114}
},
"BaseGameSymbolFrame/flashing_seq_0013.png":
{
	"frame": {"x":925,"y":117,"w":166,"h":114},
	"rotated": false,
	"trimmed": true,
	"spriteSourceSize": {"x":0,"y":0,"w":166,"h":114},
	"sourceSize": {"w":167,"h":114}
},
"BaseGameSymbolFrame/flashing_seq_0014.png":
{
	"frame": {"x":1093,"y":117,"w":166,"h":114},
	"rotated": false,
	"trimmed": true,
	"spriteSourceSize": {"x":0,"y":0,"w":166,"h":114},
	"sourceSize": {"w":167,"h":114}
},
"BaseGameSymbolFrame/flashing_seq_0015.png":
{
	"frame": {"x":927,"y":1,"w":167,"h":114},
	"rotated": false,
	"trimmed": false,
	"spriteSourceSize": {"x":0,"y":0,"w":167,"h":114},
	"sourceSize": {"w":167,"h":114}
},
"BaseGameSymbolFrame/flashing_seq_0016.png":
{
	"frame": {"x":1096,"y":1,"w":167,"h":114},
	"rotated": false,
	"trimmed": false,
	"spriteSourceSize": {"x":0,"y":0,"w":167,"h":114},
	"sourceSize": {"w":167,"h":114}
},
"BaseGameSymbolFrame/flashing_seq_0017.png":
{
	"frame": {"x":1265,"y":1,"w":167,"h":114},
	"rotated": false,
	"trimmed": false,
	"spriteSourceSize": {"x":0,"y":0,"w":167,"h":114},
	"sourceSize": {"w":167,"h":114}
},
"BaseGameSymbolFrame/flashing_seq_0018.png":
{
	"frame": {"x":1434,"y":1,"w":167,"h":114},
	"rotated": false,
	"trimmed": false,
	"spriteSourceSize": {"x":0,"y":0,"w":167,"h":114},
	"sourceSize": {"w":167,"h":114}
},
"highlighted/symbol 9/sym_9_h_0001.png":
{
	"frame": {"x":1729,"y":1228,"w":64,"h":85},
	"rotated": true,
	"trimmed": true,
	"spriteSourceSize": {"x":43,"y":7,"w":64,"h":85},
	"sourceSize": {"w":150,"h":100}
},
"highlighted/symbol 9/sym_9_h_0002.png":
{
	"frame": {"x":1901,"y":713,"w":64,"h":87},
	"rotated": true,
	"trimmed": true,
	"spriteSourceSize": {"x":43,"y":6,"w":64,"h":87},
	"sourceSize": {"w":150,"h":100}
},
"highlighted/symbol 9/sym_9_h_0003.png":
{
	"frame": {"x":1939,"y":1,"w":67,"h":89},
	"rotated": false,
	"trimmed": true,
	"spriteSourceSize": {"x":41,"y":5,"w":67,"h":89},
	"sourceSize": {"w":150,"h":100}
},
"highlighted/symbol 9/sym_9_h_0004.png":
{
	"frame": {"x":996,"y":1034,"w":71,"h":92},
	"rotated": false,
	"trimmed": true,
	"spriteSourceSize": {"x":39,"y":3,"w":71,"h":92},
	"sourceSize": {"w":150,"h":100}
},
"highlighted/symbol 9/sym_9_h_0005.png":
{
	"frame": {"x":1148,"y":537,"w":73,"h":96},
	"rotated": false,
	"trimmed": true,
	"spriteSourceSize": {"x":38,"y":1,"w":73,"h":96},
	"sourceSize": {"w":150,"h":100}
},
"highlighted/symbol 9/sym_9_h_0006.png":
{
	"frame": {"x":1449,"y":1248,"w":77,"h":98},
	"rotated": true,
	"trimmed": true,
	"spriteSourceSize": {"x":36,"y":0,"w":77,"h":98},
	"sourceSize": {"w":150,"h":100}
},
"highlighted/symbol 9/sym_9_h_0007.png":
{
	"frame": {"x":917,"y":1037,"w":77,"h":100},
	"rotated": false,
	"trimmed": true,
	"spriteSourceSize": {"x":36,"y":0,"w":77,"h":100},
	"sourceSize": {"w":150,"h":100}
},
"highlighted/symbol 9/sym_9_h_0008.png":
{
	"frame": {"x":1503,"y":1146,"w":79,"h":100},
	"rotated": false,
	"trimmed": true,
	"spriteSourceSize": {"x":35,"y":0,"w":79,"h":100},
	"sourceSize": {"w":150,"h":100}
},
"highlighted/symbol 9/sym_9_h_0009.png":
{
	"frame": {"x":321,"y":1140,"w":82,"h":100},
	"rotated": true,
	"trimmed": true,
	"spriteSourceSize": {"x":34,"y":0,"w":82,"h":100},
	"sourceSize": {"w":150,"h":100}
},
"highlighted/symbol 9/sym_9_h_0010.png":
{
	"frame": {"x":1505,"y":1044,"w":82,"h":100},
	"rotated": false,
	"trimmed": true,
	"spriteSourceSize": {"x":33,"y":0,"w":82,"h":100},
	"sourceSize": {"w":150,"h":100}
},
"highlighted/symbol 10/sym_10_h_0001.png":
{
	"frame": {"x":1264,"y":1246,"w":87,"h":80},
	"rotated": false,
	"trimmed": true,
	"spriteSourceSize": {"x":31,"y":10,"w":87,"h":80},
	"sourceSize": {"w":150,"h":100}
},
"highlighted/symbol 10/sym_10_h_0002.png":
{
	"frame": {"x":803,"y":1237,"w":89,"h":82},
	"rotated": true,
	"trimmed": true,
	"spriteSourceSize": {"x":30,"y":9,"w":89,"h":82},
	"sourceSize": {"w":150,"h":100}
},
"highlighted/symbol 10/sym_10_h_0003.png":
{
	"frame": {"x":1185,"y":1146,"w":90,"h":86},
	"rotated": true,
	"trimmed": true,
	"spriteSourceSize": {"x":29,"y":7,"w":90,"h":86},
	"sourceSize": {"w":150,"h":100}
},
"highlighted/symbol 10/sym_10_h_0004.png":
{
	"frame": {"x":887,"y":1238,"w":92,"h":88},
	"rotated": false,
	"trimmed": true,
	"spriteSourceSize": {"x":28,"y":6,"w":92,"h":88},
	"sourceSize": {"w":150,"h":100}
},
"highlighted/symbol 10/sym_10_h_0005.png":
{
	"frame": {"x":897,"y":1139,"w":97,"h":91},
	"rotated": true,
	"trimmed": true,
	"spriteSourceSize": {"x":25,"y":4,"w":97,"h":91},
	"sourceSize": {"w":150,"h":100}
},
"highlighted/symbol 10/sym_10_h_0006.png":
{
	"frame": {"x":423,"y":1137,"w":100,"h":96},
	"rotated": false,
	"trimmed": true,
	"spriteSourceSize": {"x":24,"y":2,"w":100,"h":96},
	"sourceSize": {"w":150,"h":100}
},
"highlighted/symbol 10/sym_10_h_0007.png":
{
	"frame": {"x":265,"y":1225,"w":101,"h":97},
	"rotated": true,
	"trimmed": true,
	"spriteSourceSize": {"x":23,"y":1,"w":101,"h":97},
	"sourceSize": {"w":150,"h":100}
},
"highlighted/symbol 10/sym_10_h_0008.png":
{
	"frame": {"x":1060,"y":846,"w":102,"h":99},
	"rotated": false,
	"trimmed": true,
	"spriteSourceSize": {"x":23,"y":0,"w":102,"h":99},
	"sourceSize": {"w":150,"h":100}
},
"highlighted/symbol 10/sym_10_h_0009.png":
{
	"frame": {"x":1164,"y":847,"w":104,"h":100},
	"rotated": false,
	"trimmed": true,
	"spriteSourceSize": {"x":22,"y":0,"w":104,"h":100},
	"sourceSize": {"w":150,"h":100}
},
"highlighted/symbol 10/sym_10_h_0010.png":
{
	"frame": {"x":1401,"y":841,"w":105,"h":100},
	"rotated": false,
	"trimmed": true,
	"spriteSourceSize": {"x":21,"y":0,"w":105,"h":100},
	"sourceSize": {"w":150,"h":100}
},
"highlighted/symbol A/sym_A_h_0001.png":
{
	"frame": {"x":1518,"y":553,"w":82,"h":84},
	"rotated": true,
	"trimmed": true,
	"spriteSourceSize": {"x":34,"y":8,"w":82,"h":84},
	"sourceSize": {"w":150,"h":100}
},
"highlighted/symbol A/sym_A_h_0002.png":
{
	"frame": {"x":1729,"y":1140,"w":82,"h":86},
	"rotated": false,
	"trimmed": true,
	"spriteSourceSize": {"x":34,"y":7,"w":82,"h":86},
	"sourceSize": {"w":150,"h":100}
},
"highlighted/symbol A/sym_A_h_0003.png":
{
	"frame": {"x":1069,"y":1044,"w":85,"h":87},
	"rotated": true,
	"trimmed": true,
	"spriteSourceSize": {"x":32,"y":6,"w":85,"h":87},
	"sourceSize": {"w":150,"h":100}
},
"highlighted/symbol A/sym_A_h_0004.png":
{
	"frame": {"x":981,"y":1238,"w":88,"h":91},
	"rotated": true,
	"trimmed": true,
	"spriteSourceSize": {"x":31,"y":4,"w":88,"h":91},
	"sourceSize": {"w":150,"h":100}
},
"highlighted/symbol A/sym_A_h_0005.png":
{
	"frame": {"x":707,"y":1237,"w":89,"h":94},
	"rotated": true,
	"trimmed": true,
	"spriteSourceSize": {"x":30,"y":2,"w":89,"h":94},
	"sourceSize": {"w":150,"h":100}
},
"highlighted/symbol A/sym_A_h_0006.png":
{
	"frame": {"x":1604,"y":537,"w":95,"h":99},
	"rotated": false,
	"trimmed": true,
	"spriteSourceSize": {"x":27,"y":0,"w":95,"h":99},
	"sourceSize": {"w":150,"h":100}
},
"highlighted/symbol A/sym_A_h_0007.png":
{
	"frame": {"x":1504,"y":637,"w":94,"h":100},
	"rotated": false,
	"trimmed": true,
	"spriteSourceSize": {"x":28,"y":0,"w":94,"h":100},
	"sourceSize": {"w":150,"h":100}
},
"highlighted/symbol A/sym_A_h_0008.png":
{
	"frame": {"x":1805,"y":525,"w":96,"h":99},
	"rotated": true,
	"trimmed": true,
	"spriteSourceSize": {"x":26,"y":0,"w":96,"h":99},
	"sourceSize": {"w":150,"h":100}
},
"highlighted/symbol A/sym_A_h_0009.png":
{
	"frame": {"x":1502,"y":739,"w":98,"h":100},
	"rotated": false,
	"trimmed": true,
	"spriteSourceSize": {"x":25,"y":0,"w":98,"h":100},
	"sourceSize": {"w":150,"h":100}
},
"highlighted/symbol A/sym_A_h_0010.png":
{
	"frame": {"x":1602,"y":739,"w":98,"h":100},
	"rotated": false,
	"trimmed": true,
	"spriteSourceSize": {"x":26,"y":0,"w":98,"h":100},
	"sourceSize": {"w":150,"h":100}
},
"highlighted/symbol J/sym_J_h_0001.png":
{
	"frame": {"x":1802,"y":880,"w":38,"h":83},
	"rotated": true,
	"trimmed": true,
	"spriteSourceSize": {"x":56,"y":8,"w":38,"h":83},
	"sourceSize": {"w":150,"h":100}
},
"highlighted/symbol J/sym_J_h_0002.png":
{
	"frame": {"x":411,"y":488,"w":40,"h":85},
	"rotated": true,
	"trimmed": true,
	"spriteSourceSize": {"x":55,"y":7,"w":40,"h":85},
	"sourceSize": {"w":150,"h":100}
},
"highlighted/symbol J/sym_J_h_0003.png":
{
	"frame": {"x":1672,"y":951,"w":42,"h":88},
	"rotated": false,
	"trimmed": true,
	"spriteSourceSize": {"x":55,"y":6,"w":42,"h":88},
	"sourceSize": {"w":150,"h":100}
},
"highlighted/symbol J/sym_J_h_0004.png":
{
	"frame": {"x":1958,"y":423,"w":45,"h":90},
	"rotated": false,
	"trimmed": true,
	"spriteSourceSize": {"x":52,"y":4,"w":45,"h":90},
	"sourceSize": {"w":150,"h":100}
},
"highlighted/symbol J/sym_J_h_0005.png":
{
	"frame": {"x":117,"y":1183,"w":48,"h":94},
	"rotated": true,
	"trimmed": true,
	"spriteSourceSize": {"x":51,"y":2,"w":48,"h":94},
	"sourceSize": {"w":150,"h":100}
},
"highlighted/symbol J/sym_J_h_0006.png":
{
	"frame": {"x":1702,"y":829,"w":51,"h":98},
	"rotated": true,
	"trimmed": true,
	"spriteSourceSize": {"x":50,"y":0,"w":51,"h":98},
	"sourceSize": {"w":150,"h":100}
},
"highlighted/symbol J/sym_J_h_0007.png":
{
	"frame": {"x":1675,"y":1041,"w":51,"h":99},
	"rotated": false,
	"trimmed": true,
	"spriteSourceSize": {"x":50,"y":0,"w":51,"h":99},
	"sourceSize": {"w":150,"h":100}
},
"highlighted/symbol J/sym_J_h_0008.png":
{
	"frame": {"x":1698,"y":882,"w":55,"h":99},
	"rotated": true,
	"trimmed": true,
	"spriteSourceSize": {"x":48,"y":0,"w":55,"h":99},
	"sourceSize": {"w":150,"h":100}
},
"highlighted/symbol J/sym_J_h_0009.png":
{
	"frame": {"x":219,"y":1159,"w":56,"h":100},
	"rotated": true,
	"trimmed": true,
	"spriteSourceSize": {"x":48,"y":0,"w":56,"h":100},
	"sourceSize": {"w":150,"h":100}
},
"highlighted/symbol J/sym_J_h_0010.png":
{
	"frame": {"x":1584,"y":1146,"w":56,"h":100},
	"rotated": false,
	"trimmed": true,
	"spriteSourceSize": {"x":47,"y":0,"w":56,"h":100},
	"sourceSize": {"w":150,"h":100}
},
"highlighted/symbol K/sym_K_h_0001.png":
{
	"frame": {"x":1816,"y":723,"w":68,"h":83},
	"rotated": true,
	"trimmed": true,
	"spriteSourceSize": {"x":41,"y":8,"w":68,"h":83},
	"sourceSize": {"w":150,"h":100}
},
"highlighted/symbol K/sym_K_h_0002.png":
{
	"frame": {"x":1641,"y":1248,"w":70,"h":85},
	"rotated": true,
	"trimmed": true,
	"spriteSourceSize": {"x":40,"y":7,"w":70,"h":85},
	"sourceSize": {"w":150,"h":100}
},
"highlighted/symbol K/sym_K_h_0003.png":
{
	"frame": {"x":1294,"y":635,"w":72,"h":88},
	"rotated": false,
	"trimmed": true,
	"spriteSourceSize": {"x":39,"y":6,"w":72,"h":88},
	"sourceSize": {"w":150,"h":100}
},
"highlighted/symbol K/sym_K_h_0004.png":
{
	"frame": {"x":1549,"y":1248,"w":76,"h":90},
	"rotated": true,
	"trimmed": true,
	"spriteSourceSize": {"x":37,"y":4,"w":76,"h":90},
	"sourceSize": {"w":150,"h":100}
},
"highlighted/symbol K/sym_K_h_0005.png":
{
	"frame": {"x":1353,"y":1248,"w":78,"h":94},
	"rotated": true,
	"trimmed": true,
	"spriteSourceSize": {"x":35,"y":2,"w":78,"h":94},
	"sourceSize": {"w":150,"h":100}
},
"highlighted/symbol K/sym_K_h_0006.png":
{
	"frame": {"x":1728,"y":1040,"w":82,"h":98},
	"rotated": false,
	"trimmed": true,
	"spriteSourceSize": {"x":34,"y":0,"w":82,"h":98},
	"sourceSize": {"w":150,"h":100}
},
"highlighted/symbol K/sym_K_h_0007.png":
{
	"frame": {"x":1716,"y":939,"w":82,"h":99},
	"rotated": false,
	"trimmed": true,
	"spriteSourceSize": {"x":33,"y":0,"w":82,"h":99},
	"sourceSize": {"w":150,"h":100}
},
"highlighted/symbol K/sym_K_h_0008.png":
{
	"frame": {"x":1589,"y":1044,"w":84,"h":100},
	"rotated": false,
	"trimmed": true,
	"spriteSourceSize": {"x":32,"y":0,"w":84,"h":100},
	"sourceSize": {"w":150,"h":100}
},
"highlighted/symbol K/sym_K_h_0009.png":
{
	"frame": {"x":1642,"y":1146,"w":85,"h":100},
	"rotated": false,
	"trimmed": true,
	"spriteSourceSize": {"x":31,"y":0,"w":85,"h":100},
	"sourceSize": {"w":150,"h":100}
},
"highlighted/symbol K/sym_K_h_0010.png":
{
	"frame": {"x":1162,"y":1238,"w":87,"h":100},
	"rotated": true,
	"trimmed": true,
	"spriteSourceSize": {"x":30,"y":0,"w":87,"h":100},
	"sourceSize": {"w":150,"h":100}
},
"highlighted/symbol ms1/sym_ms1_h_0001.png":
{
	"frame": {"x":1148,"y":635,"w":144,"h":82},
	"rotated": false,
	"trimmed": true,
	"spriteSourceSize": {"x":6,"y":12,"w":144,"h":82},
	"sourceSize": {"w":150,"h":100}
},
"highlighted/symbol ms1/sym_ms1_h_0002.png":
{
	"frame": {"x":1223,"y":549,"w":145,"h":84},
	"rotated": false,
	"trimmed": true,
	"spriteSourceSize": {"x":5,"y":11,"w":145,"h":84},
	"sourceSize": {"w":150,"h":100}
},
"highlighted/symbol ms1/sym_ms1_h_0003.png":
{
	"frame": {"x":921,"y":947,"w":146,"h":85},
	"rotated": false,
	"trimmed": true,
	"spriteSourceSize": {"x":4,"y":11,"w":146,"h":85},
	"sourceSize": {"w":150,"h":100}
},
"highlighted/symbol ms1/sym_ms1_h_0004.png":
{
	"frame": {"x":627,"y":1041,"w":147,"h":86},
	"rotated": false,
	"trimmed": true,
	"spriteSourceSize": {"x":3,"y":10,"w":147,"h":86},
	"sourceSize": {"w":150,"h":100}
},
"highlighted/symbol ms1/sym_ms1_h_0005.png":
{
	"frame": {"x":627,"y":1041,"w":147,"h":86},
	"rotated": false,
	"trimmed": true,
	"spriteSourceSize": {"x":3,"y":10,"w":147,"h":86},
	"sourceSize": {"w":150,"h":100}
},
"highlighted/symbol ms1/sym_ms1_h_0006.png":
{
	"frame": {"x":508,"y":743,"w":148,"h":88},
	"rotated": false,
	"trimmed": true,
	"spriteSourceSize": {"x":2,"y":9,"w":148,"h":88},
	"sourceSize": {"w":150,"h":100}
},
"highlighted/symbol ms1/sym_ms1_h_0007.png":
{
	"frame": {"x":417,"y":687,"w":149,"h":89},
	"rotated": true,
	"trimmed": true,
	"spriteSourceSize": {"x":1,"y":9,"w":149,"h":89},
	"sourceSize": {"w":150,"h":100}
},
"highlighted/symbol ms1/sym_ms1_h_0008.png":
{
	"frame": {"x":1,"y":1234,"w":150,"h":92},
	"rotated": false,
	"trimmed": true,
	"spriteSourceSize": {"x":0,"y":7,"w":150,"h":92},
	"sourceSize": {"w":150,"h":100}
},
"highlighted/symbol ms1/sym_ms1_h_0009.png":
{
	"frame": {"x":321,"y":687,"w":150,"h":94},
	"rotated": true,
	"trimmed": true,
	"spriteSourceSize": {"x":0,"y":6,"w":150,"h":94},
	"sourceSize": {"w":150,"h":100}
},
"highlighted/symbol ms1/sym_ms1_h_0010.png":
{
	"frame": {"x":1166,"y":233,"w":150,"h":93},
	"rotated": true,
	"trimmed": true,
	"spriteSourceSize": {"x":0,"y":7,"w":150,"h":93},
	"sourceSize": {"w":150,"h":100}
},
"highlighted/symbol ms2/sym_ms2_h_0001.png":
{
	"frame": {"x":1906,"y":525,"w":100,"h":92},
	"rotated": false,
	"trimmed": true,
	"spriteSourceSize": {"x":24,"y":4,"w":100,"h":92},
	"sourceSize": {"w":150,"h":100}
},
"highlighted/symbol ms2/sym_ms2_h_0002.png":
{
	"frame": {"x":1702,"y":725,"w":102,"h":94},
	"rotated": true,
	"trimmed": true,
	"spriteSourceSize": {"x":23,"y":3,"w":102,"h":94},
	"sourceSize": {"w":150,"h":100}
},
"highlighted/symbol ms2/sym_ms2_h_0003.png":
{
	"frame": {"x":1164,"y":949,"w":104,"h":96},
	"rotated": false,
	"trimmed": true,
	"spriteSourceSize": {"x":22,"y":2,"w":104,"h":96},
	"sourceSize": {"w":150,"h":100}
},
"highlighted/symbol ms2/sym_ms2_h_0004.png":
{
	"frame": {"x":1162,"y":1047,"w":106,"h":97},
	"rotated": false,
	"trimmed": true,
	"spriteSourceSize": {"x":21,"y":2,"w":106,"h":97},
	"sourceSize": {"w":150,"h":100}
},
"highlighted/symbol ms2/sym_ms2_h_0005.png":
{
	"frame": {"x":1399,"y":943,"w":107,"h":99},
	"rotated": false,
	"trimmed": true,
	"spriteSourceSize": {"x":20,"y":0,"w":107,"h":99},
	"sourceSize": {"w":150,"h":100}
},
"highlighted/symbol ms2/sym_ms2_h_0006.png":
{
	"frame": {"x":953,"y":641,"w":109,"h":100},
	"rotated": false,
	"trimmed": true,
	"spriteSourceSize": {"x":19,"y":0,"w":109,"h":100},
	"sourceSize": {"w":150,"h":100}
},
"highlighted/symbol ms2/sym_ms2_h_0007.png":
{
	"frame": {"x":952,"y":743,"w":111,"h":100},
	"rotated": false,
	"trimmed": true,
	"spriteSourceSize": {"x":18,"y":0,"w":111,"h":100},
	"sourceSize": {"w":150,"h":100}
},
"highlighted/symbol ms2/sym_ms2_h_0008.png":
{
	"frame": {"x":1273,"y":1144,"w":113,"h":100},
	"rotated": false,
	"trimmed": true,
	"spriteSourceSize": {"x":17,"y":0,"w":113,"h":100},
	"sourceSize": {"w":150,"h":100}
},
"highlighted/symbol ms2/sym_ms2_h_0009.png":
{
	"frame": {"x":1388,"y":1146,"w":113,"h":100},
	"rotated": false,
	"trimmed": true,
	"spriteSourceSize": {"x":17,"y":0,"w":113,"h":100},
	"sourceSize": {"w":150,"h":100}
},
"highlighted/symbol ms2/sym_ms2_h_0010.png":
{
	"frame": {"x":1388,"y":1044,"w":115,"h":100},
	"rotated": false,
	"trimmed": true,
	"spriteSourceSize": {"x":16,"y":0,"w":115,"h":100},
	"sourceSize": {"w":150,"h":100}
},
"highlighted/symbol ms3/sym_ms3_h_0001.png":
{
	"frame": {"x":475,"y":1235,"w":108,"h":91},
	"rotated": false,
	"trimmed": true,
	"spriteSourceSize": {"x":21,"y":4,"w":108,"h":91},
	"sourceSize": {"w":150,"h":100}
},
"highlighted/symbol ms3/sym_ms3_h_0002.png":
{
	"frame": {"x":153,"y":1233,"w":110,"h":93},
	"rotated": false,
	"trimmed": true,
	"spriteSourceSize": {"x":20,"y":3,"w":110,"h":93},
	"sourceSize": {"w":150,"h":100}
},
"highlighted/symbol ms3/sym_ms3_h_0003.png":
{
	"frame": {"x":1508,"y":841,"w":112,"h":95},
	"rotated": true,
	"trimmed": true,
	"spriteSourceSize": {"x":19,"y":2,"w":112,"h":95},
	"sourceSize": {"w":150,"h":100}
},
"highlighted/symbol ms3/sym_ms3_h_0004.png":
{
	"frame": {"x":1269,"y":725,"w":114,"h":97},
	"rotated": true,
	"trimmed": true,
	"spriteSourceSize": {"x":18,"y":1,"w":114,"h":97},
	"sourceSize": {"w":150,"h":100}
},
"highlighted/symbol ms3/sym_ms3_h_0005.png":
{
	"frame": {"x":1270,"y":1043,"w":116,"h":99},
	"rotated": false,
	"trimmed": true,
	"spriteSourceSize": {"x":17,"y":0,"w":116,"h":99},
	"sourceSize": {"w":150,"h":100}
},
"highlighted/symbol ms3/sym_ms3_h_0006.png":
{
	"frame": {"x":1065,"y":726,"w":118,"h":100},
	"rotated": true,
	"trimmed": true,
	"spriteSourceSize": {"x":16,"y":0,"w":118,"h":100},
	"sourceSize": {"w":150,"h":100}
},
"highlighted/symbol ms3/sym_ms3_h_0007.png":
{
	"frame": {"x":585,"y":1225,"w":120,"h":100},
	"rotated": false,
	"trimmed": true,
	"spriteSourceSize": {"x":15,"y":0,"w":120,"h":100},
	"sourceSize": {"w":150,"h":100}
},
"highlighted/symbol ms3/sym_ms3_h_0008.png":
{
	"frame": {"x":1834,"y":423,"w":122,"h":100},
	"rotated": false,
	"trimmed": true,
	"spriteSourceSize": {"x":14,"y":0,"w":122,"h":100},
	"sourceSize": {"w":150,"h":100}
},
"highlighted/symbol ms3/sym_ms3_h_0009.png":
{
	"frame": {"x":1560,"y":435,"w":124,"h":100},
	"rotated": false,
	"trimmed": true,
	"spriteSourceSize": {"x":13,"y":0,"w":124,"h":100},
	"sourceSize": {"w":150,"h":100}
},
"highlighted/symbol ms3/sym_ms3_h_0010.png":
{
	"frame": {"x":1167,"y":719,"w":126,"h":100},
	"rotated": true,
	"trimmed": true,
	"spriteSourceSize": {"x":12,"y":0,"w":126,"h":100},
	"sourceSize": {"w":150,"h":100}
},
"highlighted/symbol ms4/sym_ms4_h_0001.png":
{
	"frame": {"x":525,"y":1129,"w":122,"h":94},
	"rotated": false,
	"trimmed": true,
	"spriteSourceSize": {"x":14,"y":3,"w":122,"h":94},
	"sourceSize": {"w":150,"h":100}
},
"highlighted/symbol ms4/sym_ms4_h_0002.png":
{
	"frame": {"x":1708,"y":423,"w":124,"h":96},
	"rotated": false,
	"trimmed": true,
	"spriteSourceSize": {"x":13,"y":2,"w":124,"h":96},
	"sourceSize": {"w":150,"h":100}
},
"highlighted/symbol ms4/sym_ms4_h_0003.png":
{
	"frame": {"x":1270,"y":943,"w":127,"h":98},
	"rotated": false,
	"trimmed": true,
	"spriteSourceSize": {"x":11,"y":2,"w":127,"h":98},
	"sourceSize": {"w":150,"h":100}
},
"highlighted/symbol ms4/sym_ms4_h_0004.png":
{
	"frame": {"x":1270,"y":841,"w":129,"h":100},
	"rotated": false,
	"trimmed": true,
	"spriteSourceSize": {"x":10,"y":0,"w":129,"h":100},
	"sourceSize": {"w":150,"h":100}
},
"highlighted/symbol ms4/sym_ms4_h_0005.png":
{
	"frame": {"x":1368,"y":739,"w":132,"h":100},
	"rotated": false,
	"trimmed": true,
	"spriteSourceSize": {"x":8,"y":0,"w":132,"h":100},
	"sourceSize": {"w":150,"h":100}
},
"highlighted/symbol ms4/sym_ms4_h_0006.png":
{
	"frame": {"x":1368,"y":637,"w":134,"h":100},
	"rotated": false,
	"trimmed": true,
	"spriteSourceSize": {"x":8,"y":0,"w":134,"h":100},
	"sourceSize": {"w":150,"h":100}
},
"highlighted/symbol ms4/sym_ms4_h_0007.png":
{
	"frame": {"x":921,"y":845,"w":137,"h":100},
	"rotated": false,
	"trimmed": true,
	"spriteSourceSize": {"x":6,"y":0,"w":137,"h":100},
	"sourceSize": {"w":150,"h":100}
},
"highlighted/symbol ms4/sym_ms4_h_0008.png":
{
	"frame": {"x":776,"y":1037,"w":139,"h":100},
	"rotated": false,
	"trimmed": true,
	"spriteSourceSize": {"x":5,"y":0,"w":139,"h":100},
	"sourceSize": {"w":150,"h":100}
},
"highlighted/symbol ms4/sym_ms4_h_0009.png":
{
	"frame": {"x":806,"y":743,"w":144,"h":100},
	"rotated": false,
	"trimmed": true,
	"spriteSourceSize": {"x":2,"y":0,"w":144,"h":100},
	"sourceSize": {"w":150,"h":100}
},
"highlighted/symbol ms4/sym_ms4_h_0010.png":
{
	"frame": {"x":525,"y":833,"w":146,"h":100},
	"rotated": true,
	"trimmed": true,
	"spriteSourceSize": {"x":2,"y":0,"w":146,"h":100},
	"sourceSize": {"w":150,"h":100}
},
"highlighted/symbol Q/sym_Q_h_0001.png":
{
	"frame": {"x":1813,"y":1132,"w":82,"h":83},
	"rotated": false,
	"trimmed": true,
	"spriteSourceSize": {"x":34,"y":9,"w":82,"h":83},
	"sourceSize": {"w":150,"h":100}
},
"highlighted/symbol Q/sym_Q_h_0002.png":
{
	"frame": {"x":1802,"y":793,"w":83,"h":85},
	"rotated": false,
	"trimmed": true,
	"spriteSourceSize": {"x":34,"y":8,"w":83,"h":85},
	"sourceSize": {"w":150,"h":100}
},
"highlighted/symbol Q/sym_Q_h_0003.png":
{
	"frame": {"x":1074,"y":1238,"w":86,"h":88},
	"rotated": false,
	"trimmed": true,
	"spriteSourceSize": {"x":32,"y":6,"w":86,"h":88},
	"sourceSize": {"w":150,"h":100}
},
"highlighted/symbol Q/sym_Q_h_0004.png":
{
	"frame": {"x":1091,"y":1146,"w":90,"h":92},
	"rotated": true,
	"trimmed": true,
	"spriteSourceSize": {"x":30,"y":4,"w":90,"h":92},
	"sourceSize": {"w":150,"h":100}
},
"highlighted/symbol Q/sym_Q_h_0005.png":
{
	"frame": {"x":1069,"y":947,"w":93,"h":95},
	"rotated": false,
	"trimmed": true,
	"spriteSourceSize": {"x":28,"y":3,"w":93,"h":95},
	"sourceSize": {"w":150,"h":100}
},
"highlighted/symbol Q/sym_Q_h_0006.png":
{
	"frame": {"x":1803,"y":623,"w":96,"h":98},
	"rotated": false,
	"trimmed": true,
	"spriteSourceSize": {"x":27,"y":1,"w":96,"h":98},
	"sourceSize": {"w":150,"h":100}
},
"highlighted/symbol Q/sym_Q_h_0007.png":
{
	"frame": {"x":990,"y":1139,"w":97,"h":99},
	"rotated": true,
	"trimmed": true,
	"spriteSourceSize": {"x":26,"y":0,"w":97,"h":99},
	"sourceSize": {"w":150,"h":100}
},
"highlighted/symbol Q/sym_Q_h_0008.png":
{
	"frame": {"x":1600,"y":638,"w":99,"h":100},
	"rotated": true,
	"trimmed": true,
	"spriteSourceSize": {"x":25,"y":0,"w":99,"h":100},
	"sourceSize": {"w":150,"h":100}
},
"highlighted/symbol Q/sym_Q_h_0009.png":
{
	"frame": {"x":1702,"y":623,"w":99,"h":100},
	"rotated": false,
	"trimmed": true,
	"spriteSourceSize": {"x":25,"y":0,"w":99,"h":100},
	"sourceSize": {"w":150,"h":100}
},
"highlighted/symbol Q/sym_Q_h_0010.png":
{
	"frame": {"x":1701,"y":521,"w":102,"h":100},
	"rotated": false,
	"trimmed": true,
	"spriteSourceSize": {"x":23,"y":0,"w":102,"h":100},
	"sourceSize": {"w":150,"h":100}
},
"highlighted/symbol Scatter/sym_scatter_h_0001.png":
{
	"frame": {"x":464,"y":539,"w":148,"h":100},
	"rotated": false,
	"trimmed": true,
	"spriteSourceSize": {"x":2,"y":0,"w":148,"h":100},
	"sourceSize": {"w":150,"h":100}
},
"highlighted/symbol Scatter/sym_scatter_h_0002.png":
{
	"frame": {"x":614,"y":539,"w":148,"h":100},
	"rotated": false,
	"trimmed": true,
	"spriteSourceSize": {"x":2,"y":0,"w":148,"h":100},
	"sourceSize": {"w":150,"h":100}
},
"highlighted/symbol Scatter/sym_scatter_h_0003.png":
{
	"frame": {"x":764,"y":539,"w":148,"h":100},
	"rotated": false,
	"trimmed": true,
	"spriteSourceSize": {"x":2,"y":0,"w":148,"h":100},
	"sourceSize": {"w":150,"h":100}
},
"highlighted/symbol Scatter/sym_scatter_h_0004.png":
{
	"frame": {"x":1857,"y":219,"w":149,"h":100},
	"rotated": false,
	"trimmed": true,
	"spriteSourceSize": {"x":1,"y":0,"w":149,"h":100},
	"sourceSize": {"w":150,"h":100}
},
"highlighted/symbol Scatter/sym_scatter_h_0005.png":
{
	"frame": {"x":665,"y":437,"w":150,"h":100},
	"rotated": false,
	"trimmed": false,
	"spriteSourceSize": {"x":0,"y":0,"w":150,"h":100},
	"sourceSize": {"w":150,"h":100}
},
"highlighted/symbol Scatter/sym_scatter_h_0006.png":
{
	"frame": {"x":817,"y":437,"w":150,"h":100},
	"rotated": false,
	"trimmed": false,
	"spriteSourceSize": {"x":0,"y":0,"w":150,"h":100},
	"sourceSize": {"w":150,"h":100}
},
"highlighted/symbol Scatter/sym_scatter_h_0007.png":
{
	"frame": {"x":969,"y":437,"w":150,"h":100},
	"rotated": false,
	"trimmed": false,
	"spriteSourceSize": {"x":0,"y":0,"w":150,"h":100},
	"sourceSize": {"w":150,"h":100}
},
"highlighted/symbol Scatter/sym_scatter_h_0008.png":
{
	"frame": {"x":1121,"y":385,"w":150,"h":100},
	"rotated": true,
	"trimmed": false,
	"spriteSourceSize": {"x":0,"y":0,"w":150,"h":100},
	"sourceSize": {"w":150,"h":100}
},
"highlighted/symbol Scatter/sym_scatter_h_0009.png":
{
	"frame": {"x":1223,"y":447,"w":150,"h":100},
	"rotated": false,
	"trimmed": false,
	"spriteSourceSize": {"x":0,"y":0,"w":150,"h":100},
	"sourceSize": {"w":150,"h":100}
},
"highlighted/symbol Scatter/sym_scatter_h_0010.png":
{
	"frame": {"x":1375,"y":451,"w":150,"h":100},
	"rotated": false,
	"trimmed": false,
	"spriteSourceSize": {"x":0,"y":0,"w":150,"h":100},
	"sourceSize": {"w":150,"h":100}
},
"highlighted/symbol Wild/sym_wild_h_0001.png":
{
	"frame": {"x":1860,"y":321,"w":146,"h":100},
	"rotated": false,
	"trimmed": true,
	"spriteSourceSize": {"x":4,"y":0,"w":146,"h":100},
	"sourceSize": {"w":150,"h":100}
},
"highlighted/symbol Wild/sym_wild_h_0002.png":
{
	"frame": {"x":657,"y":641,"w":146,"h":100},
	"rotated": false,
	"trimmed": true,
	"spriteSourceSize": {"x":4,"y":0,"w":146,"h":100},
	"sourceSize": {"w":150,"h":100}
},
"highlighted/symbol Wild/sym_wild_h_0003.png":
{
	"frame": {"x":805,"y":641,"w":146,"h":100},
	"rotated": false,
	"trimmed": true,
	"spriteSourceSize": {"x":4,"y":0,"w":146,"h":100},
	"sourceSize": {"w":150,"h":100}
},
"highlighted/symbol Wild/sym_wild_h_0004.png":
{
	"frame": {"x":423,"y":988,"w":147,"h":100},
	"rotated": true,
	"trimmed": true,
	"spriteSourceSize": {"x":3,"y":0,"w":147,"h":100},
	"sourceSize": {"w":150,"h":100}
},
"highlighted/symbol Wild/sym_wild_h_0005.png":
{
	"frame": {"x":508,"y":641,"w":147,"h":100},
	"rotated": false,
	"trimmed": true,
	"spriteSourceSize": {"x":3,"y":0,"w":147,"h":100},
	"sourceSize": {"w":150,"h":100}
},
"highlighted/symbol Wild/sym_wild_h_0006.png":
{
	"frame": {"x":914,"y":539,"w":148,"h":100},
	"rotated": false,
	"trimmed": true,
	"spriteSourceSize": {"x":2,"y":0,"w":148,"h":100},
	"sourceSize": {"w":150,"h":100}
},
"highlighted/symbol Wild/sym_wild_h_0007.png":
{
	"frame": {"x":423,"y":838,"w":148,"h":100},
	"rotated": true,
	"trimmed": true,
	"spriteSourceSize": {"x":2,"y":0,"w":148,"h":100},
	"sourceSize": {"w":150,"h":100}
},
"highlighted/symbol Wild/sym_wild_h_0008.png":
{
	"frame": {"x":219,"y":1008,"w":149,"h":100},
	"rotated": true,
	"trimmed": true,
	"spriteSourceSize": {"x":1,"y":0,"w":149,"h":100},
	"sourceSize": {"w":150,"h":100}
},
"highlighted/symbol Wild/sym_wild_h_0009.png":
{
	"frame": {"x":219,"y":704,"w":150,"h":100},
	"rotated": true,
	"trimmed": false,
	"spriteSourceSize": {"x":0,"y":0,"w":150,"h":100},
	"sourceSize": {"w":150,"h":100}
},
"highlighted/symbol Wild/sym_wild_h_0010.png":
{
	"frame": {"x":219,"y":856,"w":150,"h":100},
	"rotated": true,
	"trimmed": false,
	"spriteSourceSize": {"x":0,"y":0,"w":150,"h":100},
	"sourceSize": {"w":150,"h":100}
},
"static/sym_9_d.png":
{
	"frame": {"x":1901,"y":779,"w":64,"h":85},
	"rotated": true,
	"trimmed": true,
	"spriteSourceSize": {"x":43,"y":7,"w":64,"h":85},
	"sourceSize": {"w":150,"h":100}
},
"static/sym_9_n.png":
{
	"frame": {"x":1887,"y":845,"w":64,"h":85},
	"rotated": true,
	"trimmed": true,
	"spriteSourceSize": {"x":43,"y":7,"w":64,"h":85},
	"sourceSize": {"w":150,"h":100}
},
"static/sym_10_d.png":
{
	"frame": {"x":1508,"y":955,"w":87,"h":80},
	"rotated": true,
	"trimmed": true,
	"spriteSourceSize": {"x":31,"y":10,"w":87,"h":80},
	"sourceSize": {"w":150,"h":100}
},
"static/sym_10_n.png":
{
	"frame": {"x":1590,"y":955,"w":87,"h":80},
	"rotated": true,
	"trimmed": true,
	"spriteSourceSize": {"x":31,"y":10,"w":87,"h":80},
	"sourceSize": {"w":150,"h":100}
},
"static/sym_A_d.png":
{
	"frame": {"x":1816,"y":1217,"w":81,"h":83},
	"rotated": false,
	"trimmed": true,
	"spriteSourceSize": {"x":35,"y":9,"w":81,"h":83},
	"sourceSize": {"w":150,"h":100}
},
"static/sym_A_n.png":
{
	"frame": {"x":1887,"y":911,"w":81,"h":83},
	"rotated": true,
	"trimmed": true,
	"spriteSourceSize": {"x":35,"y":9,"w":81,"h":83},
	"sourceSize": {"w":150,"h":100}
},
"static/sym_J_d.png":
{
	"frame": {"x":1064,"y":687,"w":37,"h":82},
	"rotated": true,
	"trimmed": true,
	"spriteSourceSize": {"x":57,"y":9,"w":37,"h":82},
	"sourceSize": {"w":150,"h":100}
},
"static/sym_J_n.png":
{
	"frame": {"x":1812,"y":1092,"w":38,"h":83},
	"rotated": true,
	"trimmed": true,
	"spriteSourceSize": {"x":56,"y":8,"w":38,"h":83},
	"sourceSize": {"w":150,"h":100}
},
"static/sym_K_d.png":
{
	"frame": {"x":1896,"y":994,"w":68,"h":83},
	"rotated": false,
	"trimmed": true,
	"spriteSourceSize": {"x":41,"y":8,"w":68,"h":83},
	"sourceSize": {"w":150,"h":100}
},
"static/sym_K_n.png":
{
	"frame": {"x":1897,"y":1079,"w":68,"h":83},
	"rotated": false,
	"trimmed": true,
	"spriteSourceSize": {"x":41,"y":8,"w":68,"h":83},
	"sourceSize": {"w":150,"h":100}
},
"static/sym_ms1_d.png":
{
	"frame": {"x":1064,"y":539,"w":146,"h":82},
	"rotated": true,
	"trimmed": true,
	"spriteSourceSize": {"x":2,"y":9,"w":146,"h":82},
	"sourceSize": {"w":150,"h":100}
},
"static/sym_ms1_n.png":
{
	"frame": {"x":1370,"y":553,"w":146,"h":82},
	"rotated": false,
	"trimmed": true,
	"spriteSourceSize": {"x":2,"y":9,"w":146,"h":82},
	"sourceSize": {"w":150,"h":100}
},
"static/sym_ms2_d.png":
{
	"frame": {"x":1906,"y":619,"w":100,"h":92},
	"rotated": false,
	"trimmed": true,
	"spriteSourceSize": {"x":24,"y":4,"w":100,"h":92},
	"sourceSize": {"w":150,"h":100}
},
"static/sym_ms2_n.png":
{
	"frame": {"x":1906,"y":525,"w":100,"h":92},
	"rotated": false,
	"trimmed": true,
	"spriteSourceSize": {"x":24,"y":4,"w":100,"h":92},
	"sourceSize": {"w":150,"h":100}
},
"static/sym_ms3_.png":
{
	"frame": {"x":364,"y":1235,"w":109,"h":91},
	"rotated": false,
	"trimmed": true,
	"spriteSourceSize": {"x":11,"y":2,"w":109,"h":91},
	"sourceSize": {"w":130,"h":95}
},
"static/sym_ms3_d.png":
{
	"frame": {"x":1605,"y":841,"w":108,"h":91},
	"rotated": true,
	"trimmed": true,
	"spriteSourceSize": {"x":20,"y":4,"w":108,"h":91},
	"sourceSize": {"w":150,"h":100}
},
"static/sym_ms3_n.png":
{
	"frame": {"x":475,"y":1235,"w":108,"h":91},
	"rotated": false,
	"trimmed": true,
	"spriteSourceSize": {"x":20,"y":4,"w":108,"h":91},
	"sourceSize": {"w":150,"h":100}
},
"static/sym_ms4_d.png":
{
	"frame": {"x":649,"y":1129,"w":122,"h":94},
	"rotated": false,
	"trimmed": true,
	"spriteSourceSize": {"x":14,"y":3,"w":122,"h":94},
	"sourceSize": {"w":150,"h":100}
},
"static/sym_ms4_n.png":
{
	"frame": {"x":773,"y":1139,"w":122,"h":96},
	"rotated": false,
	"trimmed": true,
	"spriteSourceSize": {"x":14,"y":2,"w":122,"h":96},
	"sourceSize": {"w":150,"h":100}
},
"static/sym_Q_d.png":
{
	"frame": {"x":1800,"y":920,"w":82,"h":84},
	"rotated": false,
	"trimmed": true,
	"spriteSourceSize": {"x":34,"y":8,"w":82,"h":84},
	"sourceSize": {"w":150,"h":100}
},
"static/sym_Q_n.png":
{
	"frame": {"x":1812,"y":1006,"w":82,"h":84},
	"rotated": false,
	"trimmed": true,
	"spriteSourceSize": {"x":34,"y":8,"w":82,"h":84},
	"sourceSize": {"w":150,"h":100}
},
"static/sym_scatter_d.png":
{
	"frame": {"x":321,"y":839,"w":149,"h":100},
	"rotated": true,
	"trimmed": true,
	"spriteSourceSize": {"x":1,"y":0,"w":149,"h":100},
	"sourceSize": {"w":150,"h":100}
},
"static/sym_scatter_n.png":
{
	"frame": {"x":1408,"y":247,"w":149,"h":100},
	"rotated": false,
	"trimmed": true,
	"spriteSourceSize": {"x":1,"y":0,"w":149,"h":100},
	"sourceSize": {"w":150,"h":100}
},
"static/sym_wild_d.png":
{
	"frame": {"x":525,"y":981,"w":146,"h":100},
	"rotated": true,
	"trimmed": true,
	"spriteSourceSize": {"x":4,"y":0,"w":146,"h":100},
	"sourceSize": {"w":150,"h":100}
},
"static/sym_wild_n.png":
{
	"frame": {"x":658,"y":743,"w":146,"h":100},
	"rotated": false,
	"trimmed": true,
	"spriteSourceSize": {"x":4,"y":0,"w":146,"h":100},
	"sourceSize": {"w":150,"h":100}
}},
"animations": {
	"BaseGameSymbolFrame/flashing_seq": ["BaseGameSymbolFrame/flashing_seq_0001.png","BaseGameSymbolFrame/flashing_seq_0002.png","BaseGameSymbolFrame/flashing_seq_0003.png","BaseGameSymbolFrame/flashing_seq_0004.png","BaseGameSymbolFrame/flashing_seq_0005.png","BaseGameSymbolFrame/flashing_seq_0006.png","BaseGameSymbolFrame/flashing_seq_0007.png","BaseGameSymbolFrame/flashing_seq_0008.png","BaseGameSymbolFrame/flashing_seq_0009.png","BaseGameSymbolFrame/flashing_seq_0010.png","BaseGameSymbolFrame/flashing_seq_0011.png","BaseGameSymbolFrame/flashing_seq_0012.png","BaseGameSymbolFrame/flashing_seq_0013.png","BaseGameSymbolFrame/flashing_seq_0014.png","BaseGameSymbolFrame/flashing_seq_0015.png","BaseGameSymbolFrame/flashing_seq_0016.png","BaseGameSymbolFrame/flashing_seq_0017.png","BaseGameSymbolFrame/flashing_seq_0018.png"],
	"animated/sym_scatter/scatter": ["animated/sym_scatter/scatter_0001.png","animated/sym_scatter/scatter_0002.png","animated/sym_scatter/scatter_0003.png","animated/sym_scatter/scatter_0004.png","animated/sym_scatter/scatter_0005.png","animated/sym_scatter/scatter_0006.png","animated/sym_scatter/scatter_0007.png","animated/sym_scatter/scatter_0008.png","animated/sym_scatter/scatter_0009.png","animated/sym_scatter/scatter_0010.png","animated/sym_scatter/scatter_0011.png","animated/sym_scatter/scatter_0012.png","animated/sym_scatter/scatter_0013.png","animated/sym_scatter/scatter_0014.png","animated/sym_scatter/scatter_0015.png","animated/sym_scatter/scatter_0016.png","animated/sym_scatter/scatter_0017.png","animated/sym_scatter/scatter_0018.png","animated/sym_scatter/scatter_0019.png","animated/sym_scatter/scatter_0020.png","animated/sym_scatter/scatter_0021.png","animated/sym_scatter/scatter_0022.png","animated/sym_scatter/scatter_0023.png","animated/sym_scatter/scatter_0024.png","animated/sym_scatter/scatter_0025.png"],
	"animated/sym_wild/wild_seq": ["animated/sym_wild/wild_seq_0001.png","animated/sym_wild/wild_seq_0002.png","animated/sym_wild/wild_seq_0003.png","animated/sym_wild/wild_seq_0004.png","animated/sym_wild/wild_seq_0005.png","animated/sym_wild/wild_seq_0006.png","animated/sym_wild/wild_seq_0007.png","animated/sym_wild/wild_seq_0008.png","animated/sym_wild/wild_seq_0009.png","animated/sym_wild/wild_seq_0010.png","animated/sym_wild/wild_seq_0011.png","animated/sym_wild/wild_seq_0012.png","animated/sym_wild/wild_seq_0013.png","animated/sym_wild/wild_seq_0014.png","animated/sym_wild/wild_seq_0015.png","animated/sym_wild/wild_seq_0016.png","animated/sym_wild/wild_seq_0017.png","animated/sym_wild/wild_seq_0018.png"],
	"highlighted/symbol 10/sym_10_h": ["highlighted/symbol 10/sym_10_h_0001.png","highlighted/symbol 10/sym_10_h_0002.png","highlighted/symbol 10/sym_10_h_0003.png","highlighted/symbol 10/sym_10_h_0004.png","highlighted/symbol 10/sym_10_h_0005.png","highlighted/symbol 10/sym_10_h_0006.png","highlighted/symbol 10/sym_10_h_0007.png","highlighted/symbol 10/sym_10_h_0008.png","highlighted/symbol 10/sym_10_h_0009.png","highlighted/symbol 10/sym_10_h_0010.png"],
	"highlighted/symbol 9/sym_9_h": ["highlighted/symbol 9/sym_9_h_0001.png","highlighted/symbol 9/sym_9_h_0002.png","highlighted/symbol 9/sym_9_h_0003.png","highlighted/symbol 9/sym_9_h_0004.png","highlighted/symbol 9/sym_9_h_0005.png","highlighted/symbol 9/sym_9_h_0006.png","highlighted/symbol 9/sym_9_h_0007.png","highlighted/symbol 9/sym_9_h_0008.png","highlighted/symbol 9/sym_9_h_0009.png","highlighted/symbol 9/sym_9_h_0010.png"],
	"highlighted/symbol A/sym_A_h": ["highlighted/symbol A/sym_A_h_0001.png","highlighted/symbol A/sym_A_h_0002.png","highlighted/symbol A/sym_A_h_0003.png","highlighted/symbol A/sym_A_h_0004.png","highlighted/symbol A/sym_A_h_0005.png","highlighted/symbol A/sym_A_h_0006.png","highlighted/symbol A/sym_A_h_0007.png","highlighted/symbol A/sym_A_h_0008.png","highlighted/symbol A/sym_A_h_0009.png","highlighted/symbol A/sym_A_h_0010.png"],
	"highlighted/symbol J/sym_J_h": ["highlighted/symbol J/sym_J_h_0001.png","highlighted/symbol J/sym_J_h_0002.png","highlighted/symbol J/sym_J_h_0003.png","highlighted/symbol J/sym_J_h_0004.png","highlighted/symbol J/sym_J_h_0005.png","highlighted/symbol J/sym_J_h_0006.png","highlighted/symbol J/sym_J_h_0007.png","highlighted/symbol J/sym_J_h_0008.png","highlighted/symbol J/sym_J_h_0009.png","highlighted/symbol J/sym_J_h_0010.png"],
	"highlighted/symbol K/sym_K_h": ["highlighted/symbol K/sym_K_h_0001.png","highlighted/symbol K/sym_K_h_0002.png","highlighted/symbol K/sym_K_h_0003.png","highlighted/symbol K/sym_K_h_0004.png","highlighted/symbol K/sym_K_h_0005.png","highlighted/symbol K/sym_K_h_0006.png","highlighted/symbol K/sym_K_h_0007.png","highlighted/symbol K/sym_K_h_0008.png","highlighted/symbol K/sym_K_h_0009.png","highlighted/symbol K/sym_K_h_0010.png"],
	"highlighted/symbol Q/sym_Q_h": ["highlighted/symbol Q/sym_Q_h_0001.png","highlighted/symbol Q/sym_Q_h_0002.png","highlighted/symbol Q/sym_Q_h_0003.png","highlighted/symbol Q/sym_Q_h_0004.png","highlighted/symbol Q/sym_Q_h_0005.png","highlighted/symbol Q/sym_Q_h_0006.png","highlighted/symbol Q/sym_Q_h_0007.png","highlighted/symbol Q/sym_Q_h_0008.png","highlighted/symbol Q/sym_Q_h_0009.png","highlighted/symbol Q/sym_Q_h_0010.png"],
	"highlighted/symbol Scatter/sym_scatter_h": ["highlighted/symbol Scatter/sym_scatter_h_0001.png","highlighted/symbol Scatter/sym_scatter_h_0002.png","highlighted/symbol Scatter/sym_scatter_h_0003.png","highlighted/symbol Scatter/sym_scatter_h_0004.png","highlighted/symbol Scatter/sym_scatter_h_0005.png","highlighted/symbol Scatter/sym_scatter_h_0006.png","highlighted/symbol Scatter/sym_scatter_h_0007.png","highlighted/symbol Scatter/sym_scatter_h_0008.png","highlighted/symbol Scatter/sym_scatter_h_0009.png","highlighted/symbol Scatter/sym_scatter_h_0010.png"],
	"highlighted/symbol Wild/sym_wild_h": ["highlighted/symbol Wild/sym_wild_h_0001.png","highlighted/symbol Wild/sym_wild_h_0002.png","highlighted/symbol Wild/sym_wild_h_0003.png","highlighted/symbol Wild/sym_wild_h_0004.png","highlighted/symbol Wild/sym_wild_h_0005.png","highlighted/symbol Wild/sym_wild_h_0006.png","highlighted/symbol Wild/sym_wild_h_0007.png","highlighted/symbol Wild/sym_wild_h_0008.png","highlighted/symbol Wild/sym_wild_h_0009.png","highlighted/symbol Wild/sym_wild_h_0010.png"],
	"highlighted/symbol ms1/sym_ms1_h": ["highlighted/symbol ms1/sym_ms1_h_0001.png","highlighted/symbol ms1/sym_ms1_h_0002.png","highlighted/symbol ms1/sym_ms1_h_0003.png","highlighted/symbol ms1/sym_ms1_h_0004.png","highlighted/symbol ms1/sym_ms1_h_0005.png","highlighted/symbol ms1/sym_ms1_h_0006.png","highlighted/symbol ms1/sym_ms1_h_0007.png","highlighted/symbol ms1/sym_ms1_h_0008.png","highlighted/symbol ms1/sym_ms1_h_0009.png","highlighted/symbol ms1/sym_ms1_h_0010.png"],
	"highlighted/symbol ms2/sym_ms2_h": ["highlighted/symbol ms2/sym_ms2_h_0001.png","highlighted/symbol ms2/sym_ms2_h_0002.png","highlighted/symbol ms2/sym_ms2_h_0003.png","highlighted/symbol ms2/sym_ms2_h_0004.png","highlighted/symbol ms2/sym_ms2_h_0005.png","highlighted/symbol ms2/sym_ms2_h_0006.png","highlighted/symbol ms2/sym_ms2_h_0007.png","highlighted/symbol ms2/sym_ms2_h_0008.png","highlighted/symbol ms2/sym_ms2_h_0009.png","highlighted/symbol ms2/sym_ms2_h_0010.png"],
	"highlighted/symbol ms3/sym_ms3_h": ["highlighted/symbol ms3/sym_ms3_h_0001.png","highlighted/symbol ms3/sym_ms3_h_0002.png","highlighted/symbol ms3/sym_ms3_h_0003.png","highlighted/symbol ms3/sym_ms3_h_0004.png","highlighted/symbol ms3/sym_ms3_h_0005.png","highlighted/symbol ms3/sym_ms3_h_0006.png","highlighted/symbol ms3/sym_ms3_h_0007.png","highlighted/symbol ms3/sym_ms3_h_0008.png","highlighted/symbol ms3/sym_ms3_h_0009.png","highlighted/symbol ms3/sym_ms3_h_0010.png"],
	"highlighted/symbol ms4/sym_ms4_h": ["highlighted/symbol ms4/sym_ms4_h_0001.png","highlighted/symbol ms4/sym_ms4_h_0002.png","highlighted/symbol ms4/sym_ms4_h_0003.png","highlighted/symbol ms4/sym_ms4_h_0004.png","highlighted/symbol ms4/sym_ms4_h_0005.png","highlighted/symbol ms4/sym_ms4_h_0006.png","highlighted/symbol ms4/sym_ms4_h_0007.png","highlighted/symbol ms4/sym_ms4_h_0008.png","highlighted/symbol ms4/sym_ms4_h_0009.png","highlighted/symbol ms4/sym_ms4_h_0010.png"]
},
"meta": {
	"app": "https://www.codeandweb.com/texturepacker",
	"version": "1.0",
	"image": "symbols.png",
	"format": "RGBA8888",
	"size": {"w":2007,"h":1327},
	"scale": "1",
	"smartupdate": "$TexturePacker:SmartUpdate:2fb7b107f0a063a956cc75692e9b1a18:267687cabc7f66b351ad4c96bcd9fb5c:d295ed7153fe372207e34d26d380974a$"
}
}
