{"frames": {

"big Symbol/flashing_seq_0001.png":
{
	"frame": {"x":504,"y":686,"w":501,"h":339},
	"rotated": false,
	"trimmed": true,
	"spriteSourceSize": {"x":0,"y":2,"w":501,"h":339},
	"sourceSize": {"w":501,"h":342}
},
"big Symbol/flashing_seq_0002.png":
{
	"frame": {"x":1,"y":1,"w":501,"h":341},
	"rotated": false,
	"trimmed": true,
	"spriteSourceSize": {"x":0,"y":0,"w":501,"h":341},
	"sourceSize": {"w":501,"h":342}
},
"big Symbol/flashing_seq_0003.png":
{
	"frame": {"x":1,"y":1710,"w":495,"h":341},
	"rotated": false,
	"trimmed": true,
	"spriteSourceSize": {"x":2,"y":0,"w":495,"h":341},
	"sourceSize": {"w":501,"h":342}
},
"big Symbol/flashing_seq_0004.png":
{
	"frame": {"x":498,"y":2051,"w":495,"h":341},
	"rotated": false,
	"trimmed": true,
	"spriteSourceSize": {"x":2,"y":0,"w":495,"h":341},
	"sourceSize": {"w":501,"h":342}
},
"big Symbol/flashing_seq_0005.png":
{
	"frame": {"x":1,"y":2053,"w":495,"h":341},
	"rotated": false,
	"trimmed": true,
	"spriteSourceSize": {"x":2,"y":0,"w":495,"h":341},
	"sourceSize": {"w":501,"h":342}
},
"big Symbol/flashing_seq_0006.png":
{
	"frame": {"x":498,"y":2394,"w":495,"h":341},
	"rotated": false,
	"trimmed": true,
	"spriteSourceSize": {"x":2,"y":0,"w":495,"h":341},
	"sourceSize": {"w":501,"h":342}
},
"big Symbol/flashing_seq_0007.png":
{
	"frame": {"x":504,"y":1,"w":501,"h":341},
	"rotated": false,
	"trimmed": true,
	"spriteSourceSize": {"x":0,"y":0,"w":501,"h":341},
	"sourceSize": {"w":501,"h":342}
},
"big Symbol/flashing_seq_0008.png":
{
	"frame": {"x":1,"y":344,"w":501,"h":340},
	"rotated": false,
	"trimmed": true,
	"spriteSourceSize": {"x":0,"y":1,"w":501,"h":340},
	"sourceSize": {"w":501,"h":342}
},
"big Symbol/flashing_seq_0009.png":
{
	"frame": {"x":504,"y":1027,"w":501,"h":339},
	"rotated": false,
	"trimmed": true,
	"spriteSourceSize": {"x":0,"y":2,"w":501,"h":339},
	"sourceSize": {"w":501,"h":342}
},
"big Symbol/flashing_seq_0010.png":
{
	"frame": {"x":504,"y":344,"w":501,"h":340},
	"rotated": false,
	"trimmed": true,
	"spriteSourceSize": {"x":0,"y":2,"w":501,"h":340},
	"sourceSize": {"w":501,"h":342}
},
"big Symbol/flashing_seq_0011.png":
{
	"frame": {"x":504,"y":1709,"w":496,"h":340},
	"rotated": false,
	"trimmed": true,
	"spriteSourceSize": {"x":2,"y":2,"w":496,"h":340},
	"sourceSize": {"w":501,"h":342}
},
"big Symbol/flashing_seq_0012.png":
{
	"frame": {"x":1,"y":2396,"w":495,"h":340},
	"rotated": false,
	"trimmed": true,
	"spriteSourceSize": {"x":2,"y":2,"w":495,"h":340},
	"sourceSize": {"w":501,"h":342}
},
"big Symbol/flashing_seq_0013.png":
{
	"frame": {"x":498,"y":2737,"w":495,"h":340},
	"rotated": false,
	"trimmed": true,
	"spriteSourceSize": {"x":2,"y":2,"w":495,"h":340},
	"sourceSize": {"w":501,"h":342}
},
"big Symbol/flashing_seq_0014.png":
{
	"frame": {"x":1,"y":2738,"w":495,"h":340},
	"rotated": false,
	"trimmed": true,
	"spriteSourceSize": {"x":2,"y":2,"w":495,"h":340},
	"sourceSize": {"w":501,"h":342}
},
"big Symbol/flashing_seq_0015.png":
{
	"frame": {"x":1,"y":686,"w":501,"h":340},
	"rotated": false,
	"trimmed": true,
	"spriteSourceSize": {"x":0,"y":2,"w":501,"h":340},
	"sourceSize": {"w":501,"h":342}
},
"big Symbol/flashing_seq_0016.png":
{
	"frame": {"x":1,"y":1028,"w":501,"h":339},
	"rotated": false,
	"trimmed": true,
	"spriteSourceSize": {"x":0,"y":2,"w":501,"h":339},
	"sourceSize": {"w":501,"h":342}
},
"big Symbol/flashing_seq_0017.png":
{
	"frame": {"x":504,"y":1368,"w":501,"h":339},
	"rotated": false,
	"trimmed": true,
	"spriteSourceSize": {"x":0,"y":2,"w":501,"h":339},
	"sourceSize": {"w":501,"h":342}
},
"big Symbol/flashing_seq_0018.png":
{
	"frame": {"x":1,"y":1369,"w":501,"h":339},
	"rotated": false,
	"trimmed": true,
	"spriteSourceSize": {"x":0,"y":2,"w":501,"h":339},
	"sourceSize": {"w":501,"h":342}
},
"fsframe01.png":
{
	"frame": {"x":1,"y":3080,"w":167,"h":114},
	"rotated": true,
	"trimmed": false,
	"spriteSourceSize": {"x":0,"y":0,"w":167,"h":114},
	"sourceSize": {"w":167,"h":114}
},
"fsframe02.png":
{
	"frame": {"x":117,"y":3080,"w":167,"h":114},
	"rotated": true,
	"trimmed": false,
	"spriteSourceSize": {"x":0,"y":0,"w":167,"h":114},
	"sourceSize": {"w":167,"h":114}
},
"fsframe03.png":
{
	"frame": {"x":233,"y":3080,"w":167,"h":114},
	"rotated": true,
	"trimmed": false,
	"spriteSourceSize": {"x":0,"y":0,"w":167,"h":114},
	"sourceSize": {"w":167,"h":114}
},
"fsframe04.png":
{
	"frame": {"x":349,"y":3080,"w":167,"h":114},
	"rotated": true,
	"trimmed": false,
	"spriteSourceSize": {"x":0,"y":0,"w":167,"h":114},
	"sourceSize": {"w":167,"h":114}
},
"fsframe05.png":
{
	"frame": {"x":349,"y":3080,"w":167,"h":114},
	"rotated": true,
	"trimmed": false,
	"spriteSourceSize": {"x":0,"y":0,"w":167,"h":114},
	"sourceSize": {"w":167,"h":114}
},
"fsframe06.png":
{
	"frame": {"x":465,"y":3080,"w":167,"h":114},
	"rotated": true,
	"trimmed": false,
	"spriteSourceSize": {"x":0,"y":0,"w":167,"h":114},
	"sourceSize": {"w":167,"h":114}
},
"fsframe07.png":
{
	"frame": {"x":581,"y":3079,"w":167,"h":114},
	"rotated": true,
	"trimmed": false,
	"spriteSourceSize": {"x":0,"y":0,"w":167,"h":114},
	"sourceSize": {"w":167,"h":114}
},
"fsframe08.png":
{
	"frame": {"x":697,"y":3079,"w":167,"h":114},
	"rotated": true,
	"trimmed": false,
	"spriteSourceSize": {"x":0,"y":0,"w":167,"h":114},
	"sourceSize": {"w":167,"h":114}
},
"fsframe09.png":
{
	"frame": {"x":813,"y":3079,"w":167,"h":114},
	"rotated": false,
	"trimmed": false,
	"spriteSourceSize": {"x":0,"y":0,"w":167,"h":114},
	"sourceSize": {"w":167,"h":114}
},
"fsframe10.png":
{
	"frame": {"x":813,"y":3195,"w":167,"h":114},
	"rotated": false,
	"trimmed": false,
	"spriteSourceSize": {"x":0,"y":0,"w":167,"h":114},
	"sourceSize": {"w":167,"h":114}
}},
"animations": {
	"big Symbol/flashing_seq": ["big Symbol/flashing_seq_0001.png","big Symbol/flashing_seq_0002.png","big Symbol/flashing_seq_0003.png","big Symbol/flashing_seq_0004.png","big Symbol/flashing_seq_0005.png","big Symbol/flashing_seq_0006.png","big Symbol/flashing_seq_0007.png","big Symbol/flashing_seq_0008.png","big Symbol/flashing_seq_0009.png","big Symbol/flashing_seq_0010.png","big Symbol/flashing_seq_0011.png","big Symbol/flashing_seq_0012.png","big Symbol/flashing_seq_0013.png","big Symbol/flashing_seq_0014.png","big Symbol/flashing_seq_0015.png","big Symbol/flashing_seq_0016.png","big Symbol/flashing_seq_0017.png","big Symbol/flashing_seq_0018.png"],
	"fsframe": ["fsframe01.png","fsframe02.png","fsframe03.png","fsframe04.png","fsframe05.png","fsframe06.png","fsframe07.png","fsframe08.png","fsframe09.png","fsframe10.png"]
},
"meta": {
	"app": "https://www.codeandweb.com/texturepacker",
	"version": "1.0",
	"image": "fsframes.png",
	"format": "RGBA8888",
	"size": {"w":1006,"h":3310},
	"scale": "1",
	"smartupdate": "$TexturePacker:SmartUpdate:036c36262e03f85bceb8fd8797da0509:149698da67efa11f83bf30a83bc65163:c931060b57d86eda41c942c383cd1b8a$"
}
}
